#Command: "C:\Program Files (x86)\Microsoft Visual Studio\2019\Professional\VC\Tools\MSVC\14.28.29910\bin\HostX86\x86\link.exe" /ERRORREPORT:PROMPT @C:\Users\user\AppData\Local\Temp\tmp7110a6b9a4ba49949dad1452cef64586.rsp
^D:\NRH SOURCE\10.HEADSET\V1.0.54\HEADSET\SOURCE\STM\FILES\RELEASE\FILES.OBJ|D:\NRH SOURCE\10.HEADSET\V1.0.54\HEADSET\SOURCE\STM\FILES\RELEASE\FILES.RES|D:\NRH SOURCE\10.HEADSET\V1.0.54\HEADSET\SOURCE\STM\FILES\RELEASE\IMAGE.OBJ|D:\NRH SOURCE\10.HEADSET\V1.0.54\HEADSET\SOURCE\STM\FILES\RELEASE\INI.OBJ|D:\NRH SOURCE\10.HEADSET\V1.0.54\HEADSET\SOURCE\STM\FILES\RELEASE\STDAFX.OBJ|D:\NRH SOURCE\10.HEADSET\V1.0.54\HEADSET\SOURCE\STM\FILES\RELEASE\STFILE.OBJ
C:\USERS\USER\APPDATA\LOCAL\TEMP\LNK{243C89B9-ABB6-45EB-A315-D91E37D40DB7}.TMP
