^D:\01.PROJECT\03. PC\10.HEADSET\V1.0.53\HEADSET\SOURCE\STM\FILES\FILES.RC
/D NDEBUG /D _VC80_UPGRADE=0x0600 /D _AFXDLL /l"0x0409" /nologo /fo"RELEASE\FILES.RES"  D:\01.PROJECT\03. PC\10.HEADSET\V1.0.53\HEADSET\SOURCE\STM\FILES\FILES.RC
^D:\01.PROJECT\03PC\10.HEADSET\V1.0.53\HEADSET\SOURCE\STM\FILES\FILES.RC
/D NDEBUG /D _VC80_UPGRADE=0x0600 /D _AFXDLL /l"0x0409" /nologo /fo"RELEASE\FILES.RES"  D:\01.PROJECT\03PC\10.HEADSET\V1.0.53\HEADSET\SOURCE\STM\FILES\FILES.RC
^D:\01.PROJECT\03PC\10.HEADSET\V1.0.54\HEADSET\SOURCE\STM\FILES\FILES.RC
/D NDEBUG /D _VC80_UPGRADE=0x0600 /D _AFXDLL /l"0x0409" /nologo /fo"RELEASE\FILES.RES"  D:\01.PROJECT\03PC\10.HEADSET\V1.0.54\HEADSET\SOURCE\STM\FILES\FILES.RC
^D:\NRH SOURCE\10.HEADSET\V1.0.54\HEADSET\SOURCE\STM\FILES\FILES.RC
/D NDEBUG /D _VC80_UPGRADE=0x0600 /D _AFXDLL /l"0x0409" /nologo /fo"RELEASE\FILES.RES"  D:\NRH SOURCE\10.HEADSET\V1.0.54\HEADSET\SOURCE\STM\FILES\FILES.RC
^D:\NRH SOURCE\10.HEADSET\V1.0.55\HEADSET\SOURCE\STM\FILES\FILES.RC
/D NDEBUG /D _VC80_UPGRADE=0x0600 /D _AFXDLL /l"0x0409" /nologo /fo"RELEASE\FILES.RES"  D:\NRH SOURCE\10.HEADSET\V1.0.55\HEADSET\SOURCE\STM\FILES\FILES.RC
