{
	"PREFIX": {
		"HH": "HeadSet CHomeDlg",
		"HI": "HeadSet CInnerConfigDlg",
		"HL": "HeadSet CLoginDlg",
		"HS": "HeadSet CSoundOptimizeDlg",
		"HM": "HeadSet CHeadSetDlg (MainDlg)"
	},
	"HI_KOREAN": {
		"KOREAN": "한국어",
		"ENGLISH": "한국어",
		"CHINA": "한국어",
		"JAPAN": "한국어"
	},
	"HI_ENGLISH": {
		"KOREAN": "ENGLISH",
		"ENGLISH": "ENGLISH",
		"CHINA": "ENGLISH",
		"JAPAN": "ENGLISH"
	},
	"HI_CHINESE": {
		"KOREAN": "简体中文",
		"ENGLISH": "简体中文",
		"CHINA": "简体中文",
		"JAPAN": "简体中文"
	},
	"HI_JAPANESE": {
		"KOREAN": "日本語",
		"ENGLISH": "日本語",
		"CHINA": "日本語",
		"JAPAN": "日本語"
	},
	"HM_0001": {
		"KOREAN": "네트워크 연결이 종료되었습니다.",
		"ENGLISH": "Network has been disconnected.",
		"CHINA": "网络连接结束",
		"JAPAN": "ネットワーク接続が終了されました。"
	},
	"HM_0002": {
		"KOREAN": "장비와 연결이 종료되어 프로그램을 종료합니다.",
		"ENGLISH": "Due to disconnection with the equipment program will shut down.",
		"CHINA": "与设备连接结束，程序退出",
		"JAPAN": "製品の接続が切断されたため、プログラムを終了します。"
	},
	"HM_0003": {
		"KOREAN": "로그아웃 하시겠습니까?",
		"ENGLISH": "Would you like to log out?",
		"CHINA": "确定要退出吗？",
		"JAPAN": "ログアウトしますか？"
	},
	"HM_0004": {
		"KOREAN": "Manager PC와 통신이 원활하지 않습니다.\r\n통신을 확인하시기 바랍니다.",
		"ENGLISH": "Communication with the Manager PC is not running smoothly.\r\nPlease check the communication.",
		"CHINA": "与管理员电脑通讯不畅\r\n请确认通讯状态",
		"JAPAN": "管理者PCとの通信が不安定です。\r\n通信状態を確認してください。"
	},
	"HM_0005": {
		"KOREAN": "가입된 정보가 없습니다.\r\n신규 등록을 하세요.",
		"ENGLISH": "No information is registered.\r\nPlease register a new one.",
		"CHINA": "已加入的信息不存在\r\n请进行新登入",
		"JAPAN": "アカウント情報が見つかりません。\r\n新規登録を行ってください。"
	},
	"HM_0006": {
		"KOREAN": "입력한 PW가 다릅니다.\r\n다시 입력해 주세요.",
		"ENGLISH": "The PW entered is incorrect.\r\nPlease re-enter.",
		"CHINA": "输入的密码不正确\r\n请重新输入",
		"JAPAN": "パスワードが違います。\r\nもう一度入力してください。"
	},
	"HM_0007": {
		"KOREAN": "사용권한이 없습니다.",
		"ENGLISH": "Not authorized to use.",
		"CHINA": "无权限使用",
		"JAPAN": "使用権限がありません。"
	},
	"HM_0008": {
		"KOREAN": "Manager PC와 통신이 원활하지 않습니다.\r\n통신을 확인하시기 바랍니다.",
		"ENGLISH": "Communication with the Manager PC is not running smoothly.\r\nPlease check the communication.",
		"CHINA": "与管理员电脑通讯不畅\r\n请确认通讯状态",
		"JAPAN": "管理者PCとの通信が不安定です。\r\n通信状態を確認してください。"
	},
	"HM_0009": {
		"KOREAN": "LOGIN",
		"ENGLISH": "LOGIN",
		"CHINA": "登录",
		"JAPAN": "ログイン"
	},
	"HM_0010": {
		"KOREAN": "설  정",
		"ENGLISH": "Settings",
		"CHINA": "设  置",
		"JAPAN": "設 定"
	},
	"HM_0011": {
		"KOREAN": "사운드 최적화",
		"ENGLISH": "Sound optimization",
		"CHINA": "声音优化",
		"JAPAN": "音の最適化"
	},
	"HM_0012": {
		"KOREAN": "정말로 종료하시겠습니까?\r\n(종료 시, 해당 정보는 적용되지 않습니다.)",
		"ENGLISH": "Do you want to quit?\r\n(Once you quit, the information will not be applied.)",
		"CHINA": "您要结束吗？\r\n(结束时该信息不适用)",
		"JAPAN": "終了しますか？\r\n(終了したら、該当の情報は適用されません。)"
	},
	"HM_0013": {
		"KOREAN": "종료 하시겠습니까?",
		"ENGLISH": "Do you want to quit?",
		"CHINA": "您要结束吗？",
		"JAPAN": "終了しますか？"
	},
	"HM_0014": {
		"KOREAN": "다른 PC에서 로그인 하였습니다.\r\n현재 PC는 로그아웃 됩니다.",
		"ENGLISH": "You are logged in from another PC.\r\n Your current PC will be logged out.",
		"CHINA": "在其他电脑上登录了\r\n 当前电脑已注销",
		"JAPAN": "他のPCからログインしました。\r\n現在のPCは、ログアウトします。"
	},
	"HM_0015": {
		"KOREAN": "아이디가 삭제되어 로그아웃되었습니다.",
		"ENGLISH": "Your ID has been deleted and logged out.",
		"CHINA": "账号已被删除并注销",
		"JAPAN": "IDが削除され、ログアウトされました。"
	},
	"HM_0016": {
		"KOREAN": "그룹이 존재하지 않습니다.",
		"ENGLISH": "The group does not exist.",
		"CHINA": "該組不存在。",
		"JAPAN": "グループは存在しません。"
	},
	"HM_0017": {
		"KOREAN": "그룹 정보가 맞지 않습니다.",
		"ENGLISH": "The group does not match.",
		"CHINA": "組不匹配。",
		"JAPAN": "グループが一致しません。"
	},
	"HS_0001": {
		"KOREAN": "사운드 최적화는 헤드셋을 착용하여야 ",
		"ENGLISH": "Sound optimization requires wearing a",
		"CHINA": "声音优化要戴上耳麦",
		"JAPAN": "音の最適化はヘッドセットをつけて"
	},
	"HS_0002": {
		"KOREAN": "합니다. 헤드셋 착용 후 착용한 방향을",
		"ENGLISH": "headset. Please select the direction you",
		"CHINA": "带好耳机后请按",
		"JAPAN": "行ってください。ヘッドセットをつけて"
	},
	"HS_0003": {
		"KOREAN": "선택해 주세요.",
		"ENGLISH": " wore after wearing the headset",
		"CHINA": "带着的方向",
		"JAPAN": "いる側を選択してください。"
	},
	"HS_0004": {
		"KOREAN": "사운드 최적화는 사용자에게 최적화된",
		"ENGLISH": "Sound optimization is a feature that you use",
		"CHINA": "声音优化是为了给用户提供",
		"JAPAN": "音の最適化はユーザーに最適された"
	},
	"HS_0005": {
		"KOREAN": "음질을 제공하기 위해 사용하는 기능입니다.",
		"ENGLISH": "to provide optimized sound quality to users.",
		"CHINA": "最优化的音质而使用的功能",
		"JAPAN": "音質を提供するために使う機能です。"
	},
	"HS_0006": {
		"KOREAN": "조용한 환경에서 측정하기를 권장합니다.",
		"ENGLISH": "Recommend measuring in a quiet",
		"CHINA": "建议在安静的环境中测量",
		"JAPAN": "静かな場所での測定をおすすめします。"
	},
	"HS_0007": {
		"KOREAN": "",
		"ENGLISH": "environment.",
		"CHINA": "",
		"JAPAN": ""
	},
	"HS_0008": {
		"KOREAN": "소리가 나오고 있습니다. 소리가 들리시면",
		"ENGLISH": "The sound is coming out.",
		"CHINA": "正在发出声音。 如果听到声音，",
		"JAPAN": "音が流れています。音が聞えたら"
	},
	"HS_0009": {
		"KOREAN": "ENTER 키를 누르거나, OK 버튼을",
		"ENGLISH": "If you can hear the sound,",
		"CHINA": "请按ENTER键",
		"JAPAN": "ENTERキーを押すまたはOKボタンーを"
	},
	"HS_0010": {
		"KOREAN": "클릭 하세요.",
		"ENGLISH": "press ENTER or click OK button.",
		"CHINA": "或单击OK按钮",
		"JAPAN": "選択してください。"
	},
	"HS_0011": {
		"KOREAN": "사운드 최적화가 완료되었습니다.",
		"ENGLISH": "Sound optimization is complete",
		"CHINA": "声音优化完成",
		"JAPAN": "音の最適化が完了されました。"
	},
	"HL_0001": {
		"KOREAN": "ID를 입력 하세요.",
		"ENGLISH": "Please enter your ID.",
		"CHINA": "请输入用户名",
		"JAPAN": "IDを入力してください。"
	},
	"HL_0002": {
		"KOREAN": "Password를 입력 하세요.",
		"ENGLISH": "Please enter a password.",
		"CHINA": "请输入密码",
		"JAPAN": "パスワードを入力してください。"
	},
	"HL_0003": {
		"KOREAN": "확인",
		"ENGLISH": "OK",
		"CHINA": "确认",
		"JAPAN": "確認"
	},
	"HL_0004": {
		"KOREAN": "ID를 입력 하세요.",
		"ENGLISH": "Please enter your ID.",
		"CHINA": "请输入用户名",
		"JAPAN": "IDを入力してください。"
	},
	"HL_0005": {
		"KOREAN": "ID를 확인하세요.\n최소 %d글자, 최대 %d글자",
		"ENGLISH": "Please check your ID.\nminimum %dcharacter, maximum%dcharacter",
		"CHINA": "请确认您的账户\n至少 %d个字, 最多 %d个字",
		"JAPAN": "IDを確認してください。\n最小 %d文字、最大%d文字"
	},
	"HL_0006": {
		"KOREAN": "Manager PC와 통신이 원활하지 않습니다.\r\n통신을 확인하시기 바랍니다.",
		"ENGLISH": "Communication with the Manager PC is not running smoothly.\r\nPlease check the communication.",
		"CHINA": "与管理员电脑通讯不畅\r\n请确认通讯状态",
		"JAPAN": "管理者PCとの通信が不安定です。\r\n通信状態を確認してください。"
	},
	"HL_0007": {
		"KOREAN": "사용 가능한 ID 입니다.\n사용하시겠습니까?",
		"ENGLISH": "You may use this ID.\nWould like to use it?",
		"CHINA": "可使用的用户名\n您要使用吗？",
		"JAPAN": "使用可能なIDです。\n使いますか?"
	},
	"HL_0008": {
		"KOREAN": "사용 할 수 없는 ID 입니다.\r\n다시 입력 해 주세요",
		"ENGLISH": "This ID cannot be used.\r\nPlease enter again",
		"CHINA": "不能使用的用户名\r\n请重新输入",
		"JAPAN": "使用不可能なIDです。\r\nもう一度入力してください。"
	},
	"HL_0009": {
		"KOREAN": "ID 중복확인을 실행 하세요.",
		"ENGLISH": "Please double check your ID.",
		"CHINA": "请进行用户名重复确认",
		"JAPAN": "IDの重複チェックを行ってください。"
	},
	"HL_0010": {
		"KOREAN": "Manager PC와 통신이 원활하지 않습니다.\r\n통신을 확인하시기 바랍니다.",
		"ENGLISH": "Communication with the Manager PC is not running smoothly.\r\nPlease check the communication.",
		"CHINA": "与管理员电脑通讯不畅\r\n请确认通讯状态",
		"JAPAN": "管理者PCとの通信が不安定です。\r\n通信状態を確認してください。"
	},
	"HL_0011": {
		"KOREAN": "Manager PC와 통신이 원활하지 않습니다.\r\n통신을 확인하시기 바랍니다.",
		"ENGLISH": "Communication with the Manager PC is not running smoothly.\r\nPlease check the communication.",
		"CHINA": "与管理员电脑通讯不畅\r\n请确认通讯状态",
		"JAPAN": "管理者PCとの通信が不安定です。\r\n通信状態を確認してください。"
	},
	"HL_0012": {
		"KOREAN": "계정이 이미 존재합니다.",
		"ENGLISH": "Account already exist.",
		"CHINA": "已存在账户",
		"JAPAN": "アカウントがすでに存在します。"
	},
	"HL_0013": {
		"KOREAN": "등록 가능한 사용자 수를 초과하였습니다.\n관리자에게 문의바랍니다.",
		"ENGLISH": "The number of users that can be registered has been exceeded.\nPlease contact the administrator.",
		"CHINA": "已超过可注册用户数\n请咨询管理员。",
		"JAPAN": "登録可能なユーザー数を超えました。\n管理者に確認してください。"
	},
	"HL_0014": {
		"KOREAN": "Manager PC와 통신이 원활하지 않습니다.\r\n통신을 확인하시기 바랍니다.",
		"ENGLISH": "Communication with the Manager PC is not running smoothly.\r\nPlease check the communication.",
		"CHINA": "与管理员电脑通讯不畅\r\n请确认通讯状态",
		"JAPAN": "管理者PCとの通信が不安定です。\r\n通信状態を確認してください。"
	},
	"HL_0015": {
		"KOREAN": "ID를 확인하세요.\n최소 %d글자, 최대 %d글자",
		"ENGLISH": "Please check your ID.\nminimum %dcharacter, maximum %dcharacter",
		"CHINA": "请确认用户名。\n至少 %d个字, 最多 %d个字",
		"JAPAN": "IDを確認してください。\n最小 %d文字、最大%d文字"
	},
	"HL_0016": {
		"KOREAN": "PW는 특수문자,숫자,영문자 모두를 포함한 8글자 이상이 되어야 합니다. (공백(space bar), &&는 \r\n사용할 수 없습니다.)",
		"ENGLISH": "PW must be at least 8 characters, including all special characters, numbers, and English characters. (space bar, && cannot be used.)",
		"CHINA": "密码需要包括特殊文字，数字英文字母共8个字以上 (空格键和 && 是不允许的。)",
		"JAPAN": "パスワードは特殊文字、数字、英文字すべてを含む8文字以上の設定でお願いします。(スペースバー、&&は使用できません。)"
	},
	"HL_0017": {
		"KOREAN": "입력한 PW가 다릅니다.\r\n다시 입력해 주세요.",
		"ENGLISH": "The PW entered is incorrect.\r\nPlease re-enter.",
		"CHINA": "输入的密码不正确\r\n请重新输入",
		"JAPAN": "パスワードが違います。\r\nもう一度入力してください。"
	},
	"HL_0018": {
		"KOREAN": "신규등록",
		"ENGLISH": "registration",
		"CHINA": "新登录",
		"JAPAN": "新規登録"
	},
	"HL_0019": {
		"KOREAN": "ID는 영문자,숫자,특수문자\r\n사용이 가능합니다. (공백(space bar), &&는 \r\n사용할 수 없습니다.)",
		"ENGLISH": "ID can be alphabetic, numeric\r\n and special characters. (space bar, && cannot be used.)",
		"CHINA": "用户名（ID）可使用英文、数字、特殊字符 (空格键和 &&是不允许的。)",
		"JAPAN": "IDは英字、数字、特殊文字がすべて含む必要があります。(スペースバー、&&は使用できません。)"
	},
	"HH_0001": {
		"KOREAN": "설정메뉴에서 서버설정을 해주세요.",
		"ENGLISH": "Please set the server in the settings menu.",
		"CHINA": "请在设置菜单中设置服务器",
		"JAPAN": "設定メニューでサーバー設定を行ってください。"
	},
	"HH_0002": {
		"KOREAN": "볼륨 설정에 에러가 발생하였습니다.",
		"ENGLISH": "An error occurred in the volume",
		"CHINA": "设置声音大小时发生错误",
		"JAPAN": "ボリューム設定にエラーが発生しました。"
	},
	"HH_0003": {
		"KOREAN": "음량이 높은 상태에서 오랫동안 들으면 청각이 손상될 수 있습니다.",
		"ENGLISH": "Listening at high volume for long periods of time can damage your hearing.",
		"CHINA": "长时间以高音量收听会损害您的听力。",
		"JAPAN": "大音量で長時間聞くと、聴力を損なう可能性があります。"
	},
	"HI_0001": {
		"KOREAN": "소프트웨어 업그레이드",
		"ENGLISH": "Software Upgrade",
		"CHINA": "软件更新",
		"JAPAN": "ソフトウェアのアップデート"
	},
	"HI_0002": {
		"KOREAN": "현재 버전 : ",
		"ENGLISH": "Current version : ",
		"CHINA": "现在版本 : ",
		"JAPAN": "現在バージョン : "
	},
	"HI_0003": {
		"KOREAN": "최신 버전",
		"ENGLISH": "Latest version",
		"CHINA": "最新版本",
		"JAPAN": "最新バージョン"
	},
	"HI_0004": {
		"KOREAN": "현재 최신 버전입니다.",
		"ENGLISH": "It is currently the latest version.",
		"CHINA": "已最新版本",
		"JAPAN": "現在、最新バージョンです。"
	},
	"HI_0005": {
		"KOREAN": "소프트웨어 업그레이드",
		"ENGLISH": "Software Upgrade",
		"CHINA": "软件更新",
		"JAPAN": "ソフトウェアアップグレード"
	},
	"HI_0006": {
		"KOREAN": "업그레이드 실패.\r\n다시 시도 하세요",
		"ENGLISH": "Upgrade failed.\r\nPlease try again",
		"CHINA": "更新失败，请重新尝试",
		"JAPAN": "アップグレード失敗。\r\nもう一度やり直してください。"
	},
	"HI_0007": {
		"KOREAN": "펌웨어 업그레이드",
		"ENGLISH": "Firmware Upgrade",
		"CHINA": "固件更新",
		"JAPAN": "ファームウェアアップグレード"
	},
	"HI_0008": {
		"KOREAN": "현재 버전",
		"ENGLISH": "Current version",
		"CHINA": "现在版本",
		"JAPAN": "現在バージョン"
	},
	"HI_0009": {
		"KOREAN": "최신 버전",
		"ENGLISH": "Latest version",
		"CHINA": "最新版本",
		"JAPAN": "最新バージョン"
	},
	"HI_0010": {
		"KOREAN": "펌웨어 업그레이드",
		"ENGLISH": "Firmware Upgrade",
		"CHINA": "固件更新",
		"JAPAN": "ファームウェアアップグレード"
	},
	"HI_0011": {
		"KOREAN": "업그레이드 실패.\r\n다시 시도 하세요",
		"ENGLISH": "Upgrade failed.\r\nPlease try again",
		"CHINA": "更新失败，请重新尝试",
		"JAPAN": "アップグレード失敗。\r\nもう一度やり直してください"
	},
	"HI_0012": {
		"KOREAN": "펌웨어 업그레이드",
		"ENGLISH": "Firmware Upgrade",
		"CHINA": "固件更新",
		"JAPAN": "ファームウェアアップグレード"
	},
	"HI_0013": {
		"KOREAN": "업그레이드 완료.\r\n재시작 해주세요.",
		"ENGLISH": "Upgrade complete.\r\nPlease restart.",
		"CHINA": "升級完成。\r\n請重新啟動。",
		"JAPAN": "アップグレードが完了しました。\r\n n再起動してください。"
	},
	"HI_0014": {
		"KOREAN": "DHCP Key 값을 입력해주세요.",
		"ENGLISH": "Please enter DHCP Key.",
		"CHINA": "请输入DHCP Key。",
		"JAPAN": "DHCP Key値を入力してください。"
	},
	"HI_0015": {
		"KOREAN": "컴퓨터의 네트워크 설정을 확인해주세요.",
		"ENGLISH": "Please check your computer's network settings.",
		"CHINA": "请确认电脑的网络设置",
		"JAPAN": "パソコンのネットワーク設定を確認してください。"
	},
	"HI_0016": {
		"KOREAN": "URL을 입력해주세요.",
		"ENGLISH": "Please enter URL.",
		"CHINA": "请输入URL",
		"JAPAN": "URLを入力してください。"
	},
	"HI_0017": {
		"KOREAN": "URL 형식이 잘못되었습니다.",
		"ENGLISH": "URL format is incorrect.",
		"CHINA": "URL格式不正确",
		"JAPAN": "URL形式が間違っています。"
	},
	"HI_0018": {
		"KOREAN": "URL 형식이 잘못되었습니다.",
		"ENGLISH": "URL format is incorrect.",
		"CHINA": "URL格式不正确",
		"JAPAN": "URL形式が間違っています。"
	},
	"HI_0019": {
		"KOREAN": "서버 접속에 실패하였습니다.",
		"ENGLISH": "Server connection failed.",
		"CHINA": "服务器连接失败",
		"JAPAN": "サーバー接続に失敗しました。"
	},
	"HI_0020": {
		"KOREAN": "접속방법 설정을 완료했습니다.",
		"ENGLISH": "Connection method setting is completed.",
		"CHINA": "连接方式设置完毕",
		"JAPAN": "接続方法の設定を完了しました。"
	},
	"HI_0021": {
		"KOREAN": "IP를 입력해주세요.",
		"ENGLISH": "Please enter IP.",
		"CHINA": "请输入IP",
		"JAPAN": "IPを入力してください。"
	},
	"HI_0022": {
		"KOREAN": "서버 접속에 실패하였습니다.",
		"ENGLISH": "Fail to connect to server.",
		"CHINA": "服务器连接失败",
		"JAPAN": "サーバー接続に失敗しました。"
	},
	"HI_0023": {
		"KOREAN": "접속방법 설정을 완료했습니다.",
		"ENGLISH": "Connection method setting is completed.",
		"CHINA": "连接方式设置完毕",
		"JAPAN": "接続方法の設定が完了しました。"
	},
	"HI_0024": {
		"KOREAN": "접속 방법을 선택하세요.",
		"ENGLISH": "Please select a connection method.",
		"CHINA": "请选择连接方式",
		"JAPAN": "接続方法を選択してください。"
	},
	"HI_0025": {
		"KOREAN": "서버를 찾을 수 없습니다.",
		"ENGLISH": "Server not found.",
		"CHINA": "找不到服务器",
		"JAPAN": "サーバーが見つかりません。"
	},
	"HI_0026": {
		"KOREAN": "접속방법 설정을 완료했습니다.",
		"ENGLISH": "Connection method setting is completed.",
		"CHINA": "连接方式设置完毕",
		"JAPAN": "接続方法の設定を完了しました。"
	},
	"HI_0027": {
		"KOREAN": "변경 사항이 있습니다.\n저장하시겠습니까?",
		"ENGLISH": "There are changes.\nDo you want to save?",
		"CHINA": "有变更事项\n要保存吗？",
		"JAPAN": "変更事項があります。\n保存しますか？"
	},
	"HI_0028": {
		"KOREAN": "DHCP Key 값을 입력해주세요.",
		"ENGLISH": "Please enter DHCP Key.",
		"CHINA": "请输入DHCP Key",
		"JAPAN": "DHCP Key値を入力してください。"
	},
	"HI_0029": {
		"KOREAN": "접속방법이 변경되었습니다.\n접속하기를 실행하세요.",
		"ENGLISH": "The connection method has been changed.\nRun the connection.",
		"CHINA": "连接方式已变更\n请进行连接",
		"JAPAN": "接続方法が変更されました。\n接続を行ってください。"
	},
	"HI_0030": {
		"KOREAN": "IP를 입력해주세요.",
		"ENGLISH": "Please enter IP.",
		"CHINA": "请输入IP",
		"JAPAN": "IPを入力してください。"
	},
	"HI_0031": {
		"KOREAN": "접속방법이 변경되었습니다.\n접속하기를 실행하세요.",
		"ENGLISH": "The connection method has been changed.\nRun the connection.",
		"CHINA": "连接方式已变更\n请进行连接",
		"JAPAN": "接続方法が変更されました。\n接続を行ってください。"
	},
	"HI_0032": {
		"KOREAN": "URL을 입력해주세요.",
		"ENGLISH": "Please enter URL.",
		"CHINA": "请输入URL",
		"JAPAN": "URLを入力してください。"
	},
	"HI_0033": {
		"KOREAN": "접속방법이 변경되었습니다.\n접속하기를 실행하세요.",
		"ENGLISH": "The connection method has been changed.\nRun the connection.",
		"CHINA": "连接方式已变更\n请进行连接",
		"JAPAN": "接続方法が変更されました。\n接続を行ってください。"
	},
	"HI_0034": {
		"KOREAN": "접속방법이 변경되었습니다.\n접속하기를 실행하세요.",
		"ENGLISH": "The connection method has been changed.\nRun the connection.",
		"CHINA": "连接方式已变更\n请进行连接",
		"JAPAN": "接続方法が変更されました。\n接続を行ってください。"
	},
	"HI_0035": {
		"KOREAN": "언 어",
		"ENGLISH": "Language",
		"CHINA": "语言",
		"JAPAN": "言語設定"
	},
	"HI_0037": {
		"KOREAN": "언어설정을 변경하시겠습니까?\r\n변경 시 프로그램을 재시작해야 합니다.",
		"ENGLISH": "Would you like to change the language?\r\nRestart the program on change.",
		"CHINA": "确定要变更语言吗？\r\n变更时重新开始程序",
		"JAPAN": "言語を変更しますか？\r\n言語変更のためプログラムが再起動します。"
	},
	"HI_0038": {
		"KOREAN": "설정을 저장하였습니다.",
		"ENGLISH": "Settings has been saved.",
		"CHINA": "以保存设置",
		"JAPAN": "設定を保存しました。"
	},
	"HI_0039": {
		"KOREAN": "언 어",
		"ENGLISH": "Language",
		"CHINA": "语言",
		"JAPAN": "言語設定"
	},
	"HI_0040": {
		"KOREAN": "헤드셋 설정",
		"ENGLISH": "Headset Type",
		"CHINA": "耳机形式",
		"JAPAN": "ヘッドセット設定"
	},
	"HI_0041": {
		"KOREAN": "외귀형",
		"ENGLISH": "Single ear",
		"CHINA": "外耳形",
		"JAPAN": "片耳形"
	},
	"HI_0042": {
		"KOREAN": "양귀형",
		"ENGLISH": "Both ears",
		"CHINA": "双耳形",
		"JAPAN": "両耳形"
	},
	"HI_0043": {
		"KOREAN": "사운드",
		"ENGLISH": "Sound",
		"CHINA": "进行最适",
		"JAPAN": "音の"
	},
	"HI_0044": {
		"KOREAN": "최적화 진행",
		"ENGLISH": "optimization",
		"CHINA": "合音响",
		"JAPAN": "最適化スタート"
	},
	"HI_0045": {
		"KOREAN": "MANAGER 연결등록",
		"ENGLISH": "MANAGER Connection",
		"CHINA": "MANAGER 连接登入",
		"JAPAN": "管理者接続の登録"
	},
	"HI_0046": {
		"KOREAN": "업그레이드",
		"ENGLISH": "Upgrade",
		"CHINA": "更新",
		"JAPAN": "アップグレード"
	},
	"HI_0047": {
		"KOREAN": "로그인 후에 소리최적화가 가능합니다.",
		"ENGLISH": "Sound optimization is possible after login.",
		"CHINA": "登录后可以做声音优化",
		"JAPAN": "ログイン後、音の最適化が実行できます。"
	},
	"HI_0048": {
		"KOREAN": "업그레이드 완료.\r\n재시작 해주세요.",
		"ENGLISH": "Upgrade complete.\r\nPlease restart.",
		"CHINA": "升級完成。\r\n請重新啟動。",
		"JAPAN": "アップグレードが完了しました。\r\n n再起動してください。"
	},
	"HI_0049": {
		"KOREAN": "마이크음소거\n단축키",
		"ENGLISH": "Microphone mute.\nshort key",
		"CHINA": "麦克风静音\n快捷键",
		"JAPAN": "マイクミュート\nショートカットキー"
	},
	"HI_0050": {
		"KOREAN": "영문자를 입력하세요",
		"ENGLISH": "Please enter an alphabetic character.",
		"CHINA": "请输入英文字",
		"JAPAN": "英字を入力してください。"
	},
	"HI_0051": {
		"KOREAN": "Ctrl 또는 Shift 를 누르세요.",
		"ENGLISH": "Press Ctrl or Shift.",
		"CHINA": "请按Ctrl或Shift",
		"JAPAN": "CtrlまたはShiftキーを押してください。 "
	},
	"HK_0001": {
		"KOREAN": "공백(space bar), 특수 문자\r\n&&는 사용할 수 없습니다.",
		"ENGLISH": "Special characters cannot include space bar and &&.",
		"CHINA": "特殊字符不能包含空格和&&。",
		"JAPAN": "特殊文字はスペース、&＆は使用できません。"
	}
}
