^D:\NRH source\10.Headset\V1.0.54\headset\source\STM\STUARTBLLIB\STUARTBLLIB.vcxproj
D:\NRH source\10.Headset\V1.0.54\headset\source\STM\STUARTBLLIB\Debug\STUARTBLLIB.lib
D:\NRH source\10.Headset\V1.0.54\headset\source\STM\STUARTBLLIB\Debug\STUARTBLLIB.exp
