^D:\01.PROJECT\03PC\10.HEADSET\V1.0.53\DLOGIXSSERVER\MANPASLIB\MULTILANGUAGE\MULTILANGUAGE\RELEASE\DLLMAIN.OBJ|D:\01.PROJECT\03PC\10.HEADSET\V1.0.53\DLOGIXSSERVER\MANPASLIB\MULTILANGUAGE\MULTILANGUAGE\RELEASE\MULTILANGUAGE.OBJ|D:\01.PROJECT\03PC\10.HEADSET\V1.0.53\DLOGIXSSERVER\MANPASLIB\MULTILANGUAGE\MULTILANGUAGE\RELEASE\MULTILANGUAGE.RES|D:\01.PROJECT\03PC\10.HEADSET\V1.0.53\DLOGIXSSERVER\MANPASLIB\MULTILANGUAGE\MULTILANGUAGE\RELEASE\PCH.OBJ
D:\01.PROJECT\03PC\10.HEADSET\V1.0.53\DLOGIXSSERVER\MANPASLIB\MULTILANGUAGE\MULTILANGUAGE\RELEASE\MULTILANGUAGE.RES
D:\01.PROJECT\03PC\10.HEADSET\V1.0.53\DLOGIXSSERVER\MANPASLIB\MULTILANGUAGE\MULTILANGUAGE\RELEASE\DLLMAIN.OBJ
D:\01.PROJECT\03PC\10.HEADSET\V1.0.53\DLOGIXSSERVER\MANPASLIB\MULTILANGUAGE\MULTILANGUAGE\RELEASE\MULTILANGUAGE.OBJ
D:\01.PROJECT\03PC\10.HEADSET\V1.0.53\DLOGIXSSERVER\MANPASLIB\MULTILANGUAGE\MULTILANGUAGE\RELEASE\PCH.OBJ
C:\WINDOWS\GLOBALIZATION\SORTING\SORTDEFAULT.NLS
C:\PROGRAM FILES (X86)\MICROSOFT VISUAL STUDIO\2019\PROFESSIONAL\VC\TOOLS\MSVC\14.29.30133\BIN\HOSTX86\X86\C2.DLL
C:\PROGRAM FILES (X86)\MICROSOFT VISUAL STUDIO\2019\PROFESSIONAL\VC\TOOLS\MSVC\14.29.30133\ATLMFC\LIB\X86\MFC140U.LIB
C:\PROGRAM FILES (X86)\MICROSOFT VISUAL STUDIO\2019\PROFESSIONAL\VC\TOOLS\MSVC\14.29.30133\ATLMFC\LIB\X86\MFCS140U.LIB
C:\PROGRAM FILES (X86)\MICROSOFT VISUAL STUDIO\2019\PROFESSIONAL\VC\TOOLS\MSVC\14.29.30133\LIB\X86\MSVCRT.LIB
C:\PROGRAM FILES (X86)\WINDOWS KITS\10\LIB\10.0.22000.0\UM\X86\KERNEL32.LIB
C:\PROGRAM FILES (X86)\WINDOWS KITS\10\LIB\10.0.22000.0\UM\X86\USER32.LIB
C:\PROGRAM FILES (X86)\WINDOWS KITS\10\LIB\10.0.22000.0\UM\X86\GDI32.LIB
C:\PROGRAM FILES (X86)\WINDOWS KITS\10\LIB\10.0.22000.0\UM\X86\MSIMG32.LIB
C:\PROGRAM FILES (X86)\WINDOWS KITS\10\LIB\10.0.22000.0\UM\X86\COMDLG32.LIB
C:\PROGRAM FILES (X86)\WINDOWS KITS\10\LIB\10.0.22000.0\UM\X86\WINSPOOL.LIB
C:\PROGRAM FILES (X86)\WINDOWS KITS\10\LIB\10.0.22000.0\UM\X86\ADVAPI32.LIB
C:\PROGRAM FILES (X86)\WINDOWS KITS\10\LIB\10.0.22000.0\UM\X86\SHELL32.LIB
C:\PROGRAM FILES (X86)\WINDOWS KITS\10\LIB\10.0.22000.0\UM\X86\COMCTL32.LIB
C:\PROGRAM FILES (X86)\WINDOWS KITS\10\LIB\10.0.22000.0\UM\X86\SHLWAPI.LIB
C:\PROGRAM FILES (X86)\WINDOWS KITS\10\LIB\10.0.22000.0\UM\X86\UXTHEME.LIB
C:\PROGRAM FILES (X86)\WINDOWS KITS\10\LIB\10.0.22000.0\UM\X86\WINDOWSCODECS.LIB
C:\PROGRAM FILES (X86)\WINDOWS KITS\10\LIB\10.0.22000.0\UM\X86\UUID.LIB
C:\PROGRAM FILES (X86)\MICROSOFT VISUAL STUDIO\2019\PROFESSIONAL\VC\TOOLS\MSVC\14.29.30133\ATLMFC\LIB\X86\ATLS.LIB
C:\PROGRAM FILES (X86)\WINDOWS KITS\10\LIB\10.0.22000.0\UM\X86\OLE32.LIB
C:\PROGRAM FILES (X86)\WINDOWS KITS\10\LIB\10.0.22000.0\UM\X86\OLEAUT32.LIB
C:\PROGRAM FILES (X86)\WINDOWS KITS\10\LIB\10.0.22000.0\UM\X86\OLEDLG.LIB
C:\PROGRAM FILES (X86)\WINDOWS KITS\10\LIB\10.0.22000.0\UM\X86\URLMON.LIB
C:\PROGRAM FILES (X86)\WINDOWS KITS\10\LIB\10.0.22000.0\UM\X86\ODBC32.LIB
C:\PROGRAM FILES (X86)\WINDOWS KITS\10\LIB\10.0.22000.0\UM\X86\ODBCCP32.LIB
C:\PROGRAM FILES (X86)\WINDOWS KITS\10\LIB\10.0.22000.0\UM\X86\CRYPT32.LIB
C:\PROGRAM FILES (X86)\MICROSOFT VISUAL STUDIO\2019\PROFESSIONAL\VC\TOOLS\MSVC\14.29.30133\LIB\X86\MSVCPRT.LIB
C:\PROGRAM FILES (X86)\MICROSOFT VISUAL STUDIO\2019\PROFESSIONAL\VC\TOOLS\MSVC\14.29.30133\LIB\X86\OLDNAMES.LIB
C:\PROGRAM FILES (X86)\WINDOWS KITS\10\LIB\10.0.22000.0\UM\X86\WININET.LIB
C:\PROGRAM FILES (X86)\WINDOWS KITS\10\LIB\10.0.22000.0\UM\X86\WS2_32.LIB
C:\PROGRAM FILES (X86)\WINDOWS KITS\10\LIB\10.0.22000.0\UM\X86\MSWSOCK.LIB
C:\PROGRAM FILES (X86)\MICROSOFT VISUAL STUDIO\2019\PROFESSIONAL\VC\TOOLS\MSVC\14.29.30133\LIB\X86\VCRUNTIME.LIB
C:\PROGRAM FILES (X86)\WINDOWS KITS\10\LIB\10.0.22000.0\UCRT\X86\UCRT.LIB
D:\01.PROJECT\03PC\10.HEADSET\V1.0.53\DLOGIXSSERVER\MANPASLIB\MULTILANGUAGE\MULTILANGUAGE\MULTILANGUAGE.DEF
C:\WINDOWS\SYSTEM32\TZRES.DLL
C:\PROGRAM FILES (X86)\MICROSOFT VISUAL STUDIO\2019\PROFESSIONAL\VC\TOOLS\MSVC\14.29.30133\BIN\HOSTX86\X86\1042\LINKUI.DLL
D:\01.PROJECT\03PC\10.HEADSET\V1.0.53\DLOGIXSSERVER\MANPASLIB\MULTILANGUAGE\MULTILANGUAGE\RELEASE\MULTILANGUAGE.IPDB
D:\01.PROJECT\03PC\10.HEADSET\V1.0.53\DLOGIXSSERVER\MANPASLIB\MULTILANGUAGE\MULTILANGUAGE\RELEASE\MULTILANGUAGE.IOBJ
C:\PROGRAM FILES (X86)\MICROSOFT VISUAL STUDIO\2019\PROFESSIONAL\VC\TOOLS\MSVC\14.29.30133\BIN\HOSTX86\X86\CVTRES.EXE
C:\PROGRAM FILES (X86)\MICROSOFT VISUAL STUDIO\2019\PROFESSIONAL\VC\TOOLS\MSVC\14.29.30133\INCLUDE\MANIFEST\DPIAWARE.MANIFEST
^D:\01.PROJECT\03PC\10.HEADSET\V1.0.54\DLOGIXSSERVER\MANPASLIB\MULTILANGUAGE\MULTILANGUAGE\RELEASE\DLLMAIN.OBJ|D:\01.PROJECT\03PC\10.HEADSET\V1.0.54\DLOGIXSSERVER\MANPASLIB\MULTILANGUAGE\MULTILANGUAGE\RELEASE\MULTILANGUAGE.OBJ|D:\01.PROJECT\03PC\10.HEADSET\V1.0.54\DLOGIXSSERVER\MANPASLIB\MULTILANGUAGE\MULTILANGUAGE\RELEASE\MULTILANGUAGE.RES|D:\01.PROJECT\03PC\10.HEADSET\V1.0.54\DLOGIXSSERVER\MANPASLIB\MULTILANGUAGE\MULTILANGUAGE\RELEASE\PCH.OBJ
D:\01.PROJECT\03PC\10.HEADSET\V1.0.54\DLOGIXSSERVER\MANPASLIB\MULTILANGUAGE\MULTILANGUAGE\RELEASE\MULTILANGUAGE.RES
D:\01.PROJECT\03PC\10.HEADSET\V1.0.54\DLOGIXSSERVER\MANPASLIB\MULTILANGUAGE\MULTILANGUAGE\RELEASE\DLLMAIN.OBJ
D:\01.PROJECT\03PC\10.HEADSET\V1.0.54\DLOGIXSSERVER\MANPASLIB\MULTILANGUAGE\MULTILANGUAGE\RELEASE\MULTILANGUAGE.OBJ
D:\01.PROJECT\03PC\10.HEADSET\V1.0.54\DLOGIXSSERVER\MANPASLIB\MULTILANGUAGE\MULTILANGUAGE\RELEASE\PCH.OBJ
C:\WINDOWS\GLOBALIZATION\SORTING\SORTDEFAULT.NLS
C:\PROGRAM FILES (X86)\MICROSOFT VISUAL STUDIO\2019\PROFESSIONAL\VC\TOOLS\MSVC\14.29.30133\BIN\HOSTX86\X86\C2.DLL
C:\PROGRAM FILES (X86)\MICROSOFT VISUAL STUDIO\2019\PROFESSIONAL\VC\TOOLS\MSVC\14.29.30133\ATLMFC\LIB\X86\MFC140U.LIB
C:\PROGRAM FILES (X86)\MICROSOFT VISUAL STUDIO\2019\PROFESSIONAL\VC\TOOLS\MSVC\14.29.30133\ATLMFC\LIB\X86\MFCS140U.LIB
C:\PROGRAM FILES (X86)\MICROSOFT VISUAL STUDIO\2019\PROFESSIONAL\VC\TOOLS\MSVC\14.29.30133\LIB\X86\MSVCRT.LIB
C:\PROGRAM FILES (X86)\WINDOWS KITS\10\LIB\10.0.22000.0\UM\X86\KERNEL32.LIB
C:\PROGRAM FILES (X86)\WINDOWS KITS\10\LIB\10.0.22000.0\UM\X86\USER32.LIB
C:\PROGRAM FILES (X86)\WINDOWS KITS\10\LIB\10.0.22000.0\UM\X86\GDI32.LIB
C:\PROGRAM FILES (X86)\WINDOWS KITS\10\LIB\10.0.22000.0\UM\X86\MSIMG32.LIB
C:\PROGRAM FILES (X86)\WINDOWS KITS\10\LIB\10.0.22000.0\UM\X86\COMDLG32.LIB
C:\PROGRAM FILES (X86)\WINDOWS KITS\10\LIB\10.0.22000.0\UM\X86\WINSPOOL.LIB
C:\PROGRAM FILES (X86)\WINDOWS KITS\10\LIB\10.0.22000.0\UM\X86\ADVAPI32.LIB
C:\PROGRAM FILES (X86)\WINDOWS KITS\10\LIB\10.0.22000.0\UM\X86\SHELL32.LIB
C:\PROGRAM FILES (X86)\WINDOWS KITS\10\LIB\10.0.22000.0\UM\X86\COMCTL32.LIB
C:\PROGRAM FILES (X86)\WINDOWS KITS\10\LIB\10.0.22000.0\UM\X86\SHLWAPI.LIB
C:\PROGRAM FILES (X86)\WINDOWS KITS\10\LIB\10.0.22000.0\UM\X86\UXTHEME.LIB
C:\PROGRAM FILES (X86)\WINDOWS KITS\10\LIB\10.0.22000.0\UM\X86\WINDOWSCODECS.LIB
C:\PROGRAM FILES (X86)\WINDOWS KITS\10\LIB\10.0.22000.0\UM\X86\UUID.LIB
C:\PROGRAM FILES (X86)\MICROSOFT VISUAL STUDIO\2019\PROFESSIONAL\VC\TOOLS\MSVC\14.29.30133\ATLMFC\LIB\X86\ATLS.LIB
C:\PROGRAM FILES (X86)\WINDOWS KITS\10\LIB\10.0.22000.0\UM\X86\OLE32.LIB
C:\PROGRAM FILES (X86)\WINDOWS KITS\10\LIB\10.0.22000.0\UM\X86\OLEAUT32.LIB
C:\PROGRAM FILES (X86)\WINDOWS KITS\10\LIB\10.0.22000.0\UM\X86\OLEDLG.LIB
C:\PROGRAM FILES (X86)\WINDOWS KITS\10\LIB\10.0.22000.0\UM\X86\URLMON.LIB
C:\PROGRAM FILES (X86)\WINDOWS KITS\10\LIB\10.0.22000.0\UM\X86\ODBC32.LIB
C:\PROGRAM FILES (X86)\WINDOWS KITS\10\LIB\10.0.22000.0\UM\X86\ODBCCP32.LIB
C:\PROGRAM FILES (X86)\WINDOWS KITS\10\LIB\10.0.22000.0\UM\X86\CRYPT32.LIB
C:\PROGRAM FILES (X86)\MICROSOFT VISUAL STUDIO\2019\PROFESSIONAL\VC\TOOLS\MSVC\14.29.30133\LIB\X86\MSVCPRT.LIB
C:\PROGRAM FILES (X86)\MICROSOFT VISUAL STUDIO\2019\PROFESSIONAL\VC\TOOLS\MSVC\14.29.30133\LIB\X86\OLDNAMES.LIB
C:\PROGRAM FILES (X86)\WINDOWS KITS\10\LIB\10.0.22000.0\UM\X86\WININET.LIB
C:\PROGRAM FILES (X86)\WINDOWS KITS\10\LIB\10.0.22000.0\UM\X86\WS2_32.LIB
C:\PROGRAM FILES (X86)\WINDOWS KITS\10\LIB\10.0.22000.0\UM\X86\MSWSOCK.LIB
C:\PROGRAM FILES (X86)\MICROSOFT VISUAL STUDIO\2019\PROFESSIONAL\VC\TOOLS\MSVC\14.29.30133\LIB\X86\VCRUNTIME.LIB
C:\PROGRAM FILES (X86)\WINDOWS KITS\10\LIB\10.0.22000.0\UCRT\X86\UCRT.LIB
D:\01.PROJECT\03PC\10.HEADSET\V1.0.54\DLOGIXSSERVER\MANPASLIB\MULTILANGUAGE\MULTILANGUAGE\MULTILANGUAGE.DEF
C:\WINDOWS\SYSTEM32\TZRES.DLL
C:\PROGRAM FILES (X86)\MICROSOFT VISUAL STUDIO\2019\PROFESSIONAL\VC\TOOLS\MSVC\14.29.30133\BIN\HOSTX86\X86\1042\LINKUI.DLL
D:\01.PROJECT\03PC\10.HEADSET\V1.0.54\DLOGIXSSERVER\MANPASLIB\MULTILANGUAGE\MULTILANGUAGE\RELEASE\MULTILANGUAGE.IPDB
D:\01.PROJECT\03PC\10.HEADSET\V1.0.54\DLOGIXSSERVER\MANPASLIB\MULTILANGUAGE\MULTILANGUAGE\RELEASE\MULTILANGUAGE.IOBJ
C:\PROGRAM FILES (X86)\MICROSOFT VISUAL STUDIO\2019\PROFESSIONAL\VC\TOOLS\MSVC\14.29.30133\BIN\HOSTX86\X86\CVTRES.EXE
C:\PROGRAM FILES (X86)\MICROSOFT VISUAL STUDIO\2019\PROFESSIONAL\VC\TOOLS\MSVC\14.29.30133\INCLUDE\MANIFEST\DPIAWARE.MANIFEST
^D:\NRH SOURCE\10.HEADSET\V1.0.54\DLOGIXSSERVER\MANPASLIB\MULTILANGUAGE\MULTILANGUAGE\RELEASE\DLLMAIN.OBJ|D:\NRH SOURCE\10.HEADSET\V1.0.54\DLOGIXSSERVER\MANPASLIB\MULTILANGUAGE\MULTILANGUAGE\RELEASE\MULTILANGUAGE.OBJ|D:\NRH SOURCE\10.HEADSET\V1.0.54\DLOGIXSSERVER\MANPASLIB\MULTILANGUAGE\MULTILANGUAGE\RELEASE\MULTILANGUAGE.RES|D:\NRH SOURCE\10.HEADSET\V1.0.54\DLOGIXSSERVER\MANPASLIB\MULTILANGUAGE\MULTILANGUAGE\RELEASE\PCH.OBJ
D:\NRH SOURCE\10.HEADSET\V1.0.54\DLOGIXSSERVER\MANPASLIB\MULTILANGUAGE\MULTILANGUAGE\RELEASE\MULTILANGUAGE.RES
D:\NRH SOURCE\10.HEADSET\V1.0.54\DLOGIXSSERVER\MANPASLIB\MULTILANGUAGE\MULTILANGUAGE\RELEASE\DLLMAIN.OBJ
D:\NRH SOURCE\10.HEADSET\V1.0.54\DLOGIXSSERVER\MANPASLIB\MULTILANGUAGE\MULTILANGUAGE\RELEASE\MULTILANGUAGE.OBJ
D:\NRH SOURCE\10.HEADSET\V1.0.54\DLOGIXSSERVER\MANPASLIB\MULTILANGUAGE\MULTILANGUAGE\RELEASE\PCH.OBJ
C:\WINDOWS\GLOBALIZATION\SORTING\SORTDEFAULT.NLS
C:\PROGRAM FILES (X86)\MICROSOFT VISUAL STUDIO\2019\PROFESSIONAL\VC\TOOLS\MSVC\14.28.29910\BIN\HOSTX86\X86\C2.DLL
C:\PROGRAM FILES (X86)\MICROSOFT VISUAL STUDIO\2019\PROFESSIONAL\VC\TOOLS\MSVC\14.28.29910\ATLMFC\LIB\X86\MFC140U.LIB
C:\PROGRAM FILES (X86)\MICROSOFT VISUAL STUDIO\2019\PROFESSIONAL\VC\TOOLS\MSVC\14.28.29910\ATLMFC\LIB\X86\MFCS140U.LIB
C:\PROGRAM FILES (X86)\MICROSOFT VISUAL STUDIO\2019\PROFESSIONAL\VC\TOOLS\MSVC\14.28.29910\LIB\X86\MSVCRT.LIB
C:\PROGRAM FILES (X86)\WINDOWS KITS\10\LIB\10.0.18362.0\UM\X86\KERNEL32.LIB
C:\PROGRAM FILES (X86)\WINDOWS KITS\10\LIB\10.0.18362.0\UM\X86\USER32.LIB
C:\PROGRAM FILES (X86)\WINDOWS KITS\10\LIB\10.0.18362.0\UM\X86\GDI32.LIB
C:\PROGRAM FILES (X86)\WINDOWS KITS\10\LIB\10.0.18362.0\UM\X86\MSIMG32.LIB
C:\PROGRAM FILES (X86)\WINDOWS KITS\10\LIB\10.0.18362.0\UM\X86\COMDLG32.LIB
C:\PROGRAM FILES (X86)\WINDOWS KITS\10\LIB\10.0.18362.0\UM\X86\WINSPOOL.LIB
C:\PROGRAM FILES (X86)\WINDOWS KITS\10\LIB\10.0.18362.0\UM\X86\ADVAPI32.LIB
C:\PROGRAM FILES (X86)\WINDOWS KITS\10\LIB\10.0.18362.0\UM\X86\SHELL32.LIB
C:\PROGRAM FILES (X86)\WINDOWS KITS\10\LIB\10.0.18362.0\UM\X86\COMCTL32.LIB
C:\PROGRAM FILES (X86)\WINDOWS KITS\10\LIB\10.0.18362.0\UM\X86\SHLWAPI.LIB
C:\PROGRAM FILES (X86)\WINDOWS KITS\10\LIB\10.0.18362.0\UM\X86\UXTHEME.LIB
C:\PROGRAM FILES (X86)\WINDOWS KITS\10\LIB\10.0.18362.0\UM\X86\WINDOWSCODECS.LIB
C:\PROGRAM FILES (X86)\WINDOWS KITS\10\LIB\10.0.18362.0\UM\X86\UUID.LIB
C:\PROGRAM FILES (X86)\MICROSOFT VISUAL STUDIO\2019\PROFESSIONAL\VC\TOOLS\MSVC\14.28.29910\ATLMFC\LIB\X86\ATLS.LIB
C:\PROGRAM FILES (X86)\WINDOWS KITS\10\LIB\10.0.18362.0\UM\X86\OLE32.LIB
C:\PROGRAM FILES (X86)\WINDOWS KITS\10\LIB\10.0.18362.0\UM\X86\OLEAUT32.LIB
C:\PROGRAM FILES (X86)\WINDOWS KITS\10\LIB\10.0.18362.0\UM\X86\OLEDLG.LIB
C:\PROGRAM FILES (X86)\WINDOWS KITS\10\LIB\10.0.18362.0\UM\X86\URLMON.LIB
C:\PROGRAM FILES (X86)\WINDOWS KITS\10\LIB\10.0.18362.0\UM\X86\ODBC32.LIB
C:\PROGRAM FILES (X86)\WINDOWS KITS\10\LIB\10.0.18362.0\UM\X86\ODBCCP32.LIB
C:\PROGRAM FILES (X86)\WINDOWS KITS\10\LIB\10.0.18362.0\UM\X86\CRYPT32.LIB
C:\PROGRAM FILES (X86)\MICROSOFT VISUAL STUDIO\2019\PROFESSIONAL\VC\TOOLS\MSVC\14.28.29910\LIB\X86\MSVCPRT.LIB
C:\PROGRAM FILES (X86)\MICROSOFT VISUAL STUDIO\2019\PROFESSIONAL\VC\TOOLS\MSVC\14.28.29910\LIB\X86\OLDNAMES.LIB
C:\PROGRAM FILES (X86)\WINDOWS KITS\10\LIB\10.0.18362.0\UM\X86\WININET.LIB
C:\PROGRAM FILES (X86)\WINDOWS KITS\10\LIB\10.0.18362.0\UM\X86\WS2_32.LIB
C:\PROGRAM FILES (X86)\WINDOWS KITS\10\LIB\10.0.18362.0\UM\X86\MSWSOCK.LIB
C:\PROGRAM FILES (X86)\MICROSOFT VISUAL STUDIO\2019\PROFESSIONAL\VC\TOOLS\MSVC\14.28.29910\LIB\X86\VCRUNTIME.LIB
C:\PROGRAM FILES (X86)\WINDOWS KITS\10\LIB\10.0.18362.0\UCRT\X86\UCRT.LIB
D:\NRH SOURCE\10.HEADSET\V1.0.54\DLOGIXSSERVER\MANPASLIB\MULTILANGUAGE\MULTILANGUAGE\MULTILANGUAGE.DEF
C:\WINDOWS\SYSTEM32\TZRES.DLL
C:\PROGRAM FILES (X86)\MICROSOFT VISUAL STUDIO\2019\PROFESSIONAL\VC\TOOLS\MSVC\14.28.29910\BIN\HOSTX86\X86\1042\LINKUI.DLL
D:\NRH SOURCE\10.HEADSET\V1.0.54\DLOGIXSSERVER\MANPASLIB\MULTILANGUAGE\MULTILANGUAGE\RELEASE\MULTILANGUAGE.IPDB
D:\NRH SOURCE\10.HEADSET\V1.0.54\DLOGIXSSERVER\MANPASLIB\MULTILANGUAGE\MULTILANGUAGE\RELEASE\MULTILANGUAGE.IOBJ
C:\PROGRAM FILES (X86)\MICROSOFT VISUAL STUDIO\2019\PROFESSIONAL\VC\TOOLS\MSVC\14.28.29910\BIN\HOSTX86\X86\CVTRES.EXE
C:\PROGRAM FILES (X86)\MICROSOFT VISUAL STUDIO\2019\PROFESSIONAL\VC\TOOLS\MSVC\14.28.29910\INCLUDE\MANIFEST\DPIAWARE.MANIFEST
^D:\NRH SOURCE\10.HEADSET\V1.0.55\DLOGIXSSERVER\MANPASLIB\MULTILANGUAGE\MULTILANGUAGE\RELEASE\DLLMAIN.OBJ|D:\NRH SOURCE\10.HEADSET\V1.0.55\DLOGIXSSERVER\MANPASLIB\MULTILANGUAGE\MULTILANGUAGE\RELEASE\MULTILANGUAGE.OBJ|D:\NRH SOURCE\10.HEADSET\V1.0.55\DLOGIXSSERVER\MANPASLIB\MULTILANGUAGE\MULTILANGUAGE\RELEASE\MULTILANGUAGE.RES|D:\NRH SOURCE\10.HEADSET\V1.0.55\DLOGIXSSERVER\MANPASLIB\MULTILANGUAGE\MULTILANGUAGE\RELEASE\PCH.OBJ
D:\NRH SOURCE\10.HEADSET\V1.0.55\DLOGIXSSERVER\MANPASLIB\MULTILANGUAGE\MULTILANGUAGE\RELEASE\MULTILANGUAGE.RES
D:\NRH SOURCE\10.HEADSET\V1.0.55\DLOGIXSSERVER\MANPASLIB\MULTILANGUAGE\MULTILANGUAGE\RELEASE\DLLMAIN.OBJ
D:\NRH SOURCE\10.HEADSET\V1.0.55\DLOGIXSSERVER\MANPASLIB\MULTILANGUAGE\MULTILANGUAGE\RELEASE\MULTILANGUAGE.OBJ
D:\NRH SOURCE\10.HEADSET\V1.0.55\DLOGIXSSERVER\MANPASLIB\MULTILANGUAGE\MULTILANGUAGE\RELEASE\PCH.OBJ
C:\WINDOWS\GLOBALIZATION\SORTING\SORTDEFAULT.NLS
C:\PROGRAM FILES (X86)\MICROSOFT VISUAL STUDIO\2019\PROFESSIONAL\VC\TOOLS\MSVC\14.28.29910\BIN\HOSTX86\X86\C2.DLL
C:\PROGRAM FILES (X86)\MICROSOFT VISUAL STUDIO\2019\PROFESSIONAL\VC\TOOLS\MSVC\14.28.29910\ATLMFC\LIB\X86\MFC140U.LIB
C:\PROGRAM FILES (X86)\MICROSOFT VISUAL STUDIO\2019\PROFESSIONAL\VC\TOOLS\MSVC\14.28.29910\ATLMFC\LIB\X86\MFCS140U.LIB
C:\PROGRAM FILES (X86)\MICROSOFT VISUAL STUDIO\2019\PROFESSIONAL\VC\TOOLS\MSVC\14.28.29910\LIB\X86\MSVCRT.LIB
C:\PROGRAM FILES (X86)\WINDOWS KITS\10\LIB\10.0.18362.0\UM\X86\KERNEL32.LIB
C:\PROGRAM FILES (X86)\WINDOWS KITS\10\LIB\10.0.18362.0\UM\X86\USER32.LIB
C:\PROGRAM FILES (X86)\WINDOWS KITS\10\LIB\10.0.18362.0\UM\X86\GDI32.LIB
C:\PROGRAM FILES (X86)\WINDOWS KITS\10\LIB\10.0.18362.0\UM\X86\MSIMG32.LIB
C:\PROGRAM FILES (X86)\WINDOWS KITS\10\LIB\10.0.18362.0\UM\X86\COMDLG32.LIB
C:\PROGRAM FILES (X86)\WINDOWS KITS\10\LIB\10.0.18362.0\UM\X86\WINSPOOL.LIB
C:\PROGRAM FILES (X86)\WINDOWS KITS\10\LIB\10.0.18362.0\UM\X86\ADVAPI32.LIB
C:\PROGRAM FILES (X86)\WINDOWS KITS\10\LIB\10.0.18362.0\UM\X86\SHELL32.LIB
C:\PROGRAM FILES (X86)\WINDOWS KITS\10\LIB\10.0.18362.0\UM\X86\COMCTL32.LIB
C:\PROGRAM FILES (X86)\WINDOWS KITS\10\LIB\10.0.18362.0\UM\X86\SHLWAPI.LIB
C:\PROGRAM FILES (X86)\WINDOWS KITS\10\LIB\10.0.18362.0\UM\X86\UXTHEME.LIB
C:\PROGRAM FILES (X86)\WINDOWS KITS\10\LIB\10.0.18362.0\UM\X86\WINDOWSCODECS.LIB
C:\PROGRAM FILES (X86)\WINDOWS KITS\10\LIB\10.0.18362.0\UM\X86\UUID.LIB
C:\PROGRAM FILES (X86)\MICROSOFT VISUAL STUDIO\2019\PROFESSIONAL\VC\TOOLS\MSVC\14.28.29910\ATLMFC\LIB\X86\ATLS.LIB
C:\PROGRAM FILES (X86)\WINDOWS KITS\10\LIB\10.0.18362.0\UM\X86\OLE32.LIB
C:\PROGRAM FILES (X86)\WINDOWS KITS\10\LIB\10.0.18362.0\UM\X86\OLEAUT32.LIB
C:\PROGRAM FILES (X86)\WINDOWS KITS\10\LIB\10.0.18362.0\UM\X86\OLEDLG.LIB
C:\PROGRAM FILES (X86)\WINDOWS KITS\10\LIB\10.0.18362.0\UM\X86\URLMON.LIB
C:\PROGRAM FILES (X86)\WINDOWS KITS\10\LIB\10.0.18362.0\UM\X86\ODBC32.LIB
C:\PROGRAM FILES (X86)\WINDOWS KITS\10\LIB\10.0.18362.0\UM\X86\ODBCCP32.LIB
C:\PROGRAM FILES (X86)\WINDOWS KITS\10\LIB\10.0.18362.0\UM\X86\CRYPT32.LIB
C:\PROGRAM FILES (X86)\MICROSOFT VISUAL STUDIO\2019\PROFESSIONAL\VC\TOOLS\MSVC\14.28.29910\LIB\X86\MSVCPRT.LIB
C:\PROGRAM FILES (X86)\MICROSOFT VISUAL STUDIO\2019\PROFESSIONAL\VC\TOOLS\MSVC\14.28.29910\LIB\X86\OLDNAMES.LIB
C:\PROGRAM FILES (X86)\WINDOWS KITS\10\LIB\10.0.18362.0\UM\X86\WININET.LIB
C:\PROGRAM FILES (X86)\WINDOWS KITS\10\LIB\10.0.18362.0\UM\X86\WS2_32.LIB
C:\PROGRAM FILES (X86)\WINDOWS KITS\10\LIB\10.0.18362.0\UM\X86\MSWSOCK.LIB
C:\PROGRAM FILES (X86)\MICROSOFT VISUAL STUDIO\2019\PROFESSIONAL\VC\TOOLS\MSVC\14.28.29910\LIB\X86\VCRUNTIME.LIB
C:\PROGRAM FILES (X86)\WINDOWS KITS\10\LIB\10.0.18362.0\UCRT\X86\UCRT.LIB
D:\NRH SOURCE\10.HEADSET\V1.0.55\DLOGIXSSERVER\MANPASLIB\MULTILANGUAGE\MULTILANGUAGE\MULTILANGUAGE.DEF
C:\WINDOWS\SYSTEM32\TZRES.DLL
C:\PROGRAM FILES (X86)\MICROSOFT VISUAL STUDIO\2019\PROFESSIONAL\VC\TOOLS\MSVC\14.28.29910\BIN\HOSTX86\X86\1042\LINKUI.DLL
D:\NRH SOURCE\10.HEADSET\V1.0.55\DLOGIXSSERVER\MANPASLIB\MULTILANGUAGE\MULTILANGUAGE\RELEASE\MULTILANGUAGE.IPDB
D:\NRH SOURCE\10.HEADSET\V1.0.55\DLOGIXSSERVER\MANPASLIB\MULTILANGUAGE\MULTILANGUAGE\RELEASE\MULTILANGUAGE.IOBJ
C:\PROGRAM FILES (X86)\MICROSOFT VISUAL STUDIO\2019\PROFESSIONAL\VC\TOOLS\MSVC\14.28.29910\BIN\HOSTX86\X86\CVTRES.EXE
C:\PROGRAM FILES (X86)\MICROSOFT VISUAL STUDIO\2019\PROFESSIONAL\VC\TOOLS\MSVC\14.28.29910\INCLUDE\MANIFEST\DPIAWARE.MANIFEST
