^D:\01.PROJECT\03PC\10.HEADSET\V1.0.53\DLOGIXSSERVER\MANPASLIB\MULTILANGUAGE\MULTILANGUAGE\RELEASE\DLLMAIN.OBJ|D:\01.PROJECT\03PC\10.HEADSET\V1.0.53\DLOGIXSSERVER\MANPASLIB\MULTILANGUAGE\MULTILANGUAGE\RELEASE\MULTILANGUAGE.OBJ|D:\01.PROJECT\03PC\10.HEADSET\V1.0.53\DLOGIXSSERVER\MANPASLIB\MULTILANGUAGE\MULTILANGUAGE\RELEASE\MULTILANGUAGE.RES|D:\01.PROJECT\03PC\10.HEADSET\V1.0.53\DLOGIXSSERVER\MANPASLIB\MULTILANGUAGE\MULTILANGUAGE\RELEASE\PCH.OBJ
D:\01.PROJECT\03PC\10.HEADSET\V1.0.53\HEADSET\SOURCE\RELEASE\MULTILANGUAGE.DLL
D:\01.PROJECT\03PC\10.HEADSET\V1.0.53\DLOGIXSSERVER\MANPASLIB\MULTILANGUAGE\MULTILANGUAGE\RELEASE\MULTILANGUAGE.IPDB
D:\01.PROJECT\03PC\10.HEADSET\V1.0.53\DLOGIXSSERVER\MANPASLIB\MULTILANGUAGE\MULTILANGUAGE\RELEASE\MULTILANGUAGE.IOBJ
D:\01.PROJECT\03PC\10.HEADSET\V1.0.53\HEADSET\SOURCE\RELEASE\MULTILANGUAGE.PDB
^D:\01.PROJECT\03PC\10.HEADSET\V1.0.54\DLOGIXSSERVER\MANPASLIB\MULTILANGUAGE\MULTILANGUAGE\RELEASE\DLLMAIN.OBJ|D:\01.PROJECT\03PC\10.HEADSET\V1.0.54\DLOGIXSSERVER\MANPASLIB\MULTILANGUAGE\MULTILANGUAGE\RELEASE\MULTILANGUAGE.OBJ|D:\01.PROJECT\03PC\10.HEADSET\V1.0.54\DLOGIXSSERVER\MANPASLIB\MULTILANGUAGE\MULTILANGUAGE\RELEASE\MULTILANGUAGE.RES|D:\01.PROJECT\03PC\10.HEADSET\V1.0.54\DLOGIXSSERVER\MANPASLIB\MULTILANGUAGE\MULTILANGUAGE\RELEASE\PCH.OBJ
D:\01.PROJECT\03PC\10.HEADSET\V1.0.54\HEADSET\SOURCE\RELEASE\MULTILANGUAGE.DLL
D:\01.PROJECT\03PC\10.HEADSET\V1.0.54\DLOGIXSSERVER\MANPASLIB\MULTILANGUAGE\MULTILANGUAGE\RELEASE\MULTILANGUAGE.IPDB
D:\01.PROJECT\03PC\10.HEADSET\V1.0.54\DLOGIXSSERVER\MANPASLIB\MULTILANGUAGE\MULTILANGUAGE\RELEASE\MULTILANGUAGE.IOBJ
D:\01.PROJECT\03PC\10.HEADSET\V1.0.54\HEADSET\SOURCE\RELEASE\MULTILANGUAGE.PDB
^D:\NRH SOURCE\10.HEADSET\V1.0.54\DLOGIXSSERVER\MANPASLIB\MULTILANGUAGE\MULTILANGUAGE\RELEASE\DLLMAIN.OBJ|D:\NRH SOURCE\10.HEADSET\V1.0.54\DLOGIXSSERVER\MANPASLIB\MULTILANGUAGE\MULTILANGUAGE\RELEASE\MULTILANGUAGE.OBJ|D:\NRH SOURCE\10.HEADSET\V1.0.54\DLOGIXSSERVER\MANPASLIB\MULTILANGUAGE\MULTILANGUAGE\RELEASE\MULTILANGUAGE.RES|D:\NRH SOURCE\10.HEADSET\V1.0.54\DLOGIXSSERVER\MANPASLIB\MULTILANGUAGE\MULTILANGUAGE\RELEASE\PCH.OBJ
D:\NRH SOURCE\10.HEADSET\V1.0.54\HEADSET\SOURCE\RELEASE\MULTILANGUAGE.DLL
D:\NRH SOURCE\10.HEADSET\V1.0.54\DLOGIXSSERVER\MANPASLIB\MULTILANGUAGE\MULTILANGUAGE\RELEASE\MULTILANGUAGE.IPDB
D:\NRH SOURCE\10.HEADSET\V1.0.54\DLOGIXSSERVER\MANPASLIB\MULTILANGUAGE\MULTILANGUAGE\RELEASE\MULTILANGUAGE.IOBJ
D:\NRH SOURCE\10.HEADSET\V1.0.54\HEADSET\SOURCE\RELEASE\MULTILANGUAGE.PDB
^D:\NRH SOURCE\10.HEADSET\V1.0.55\DLOGIXSSERVER\MANPASLIB\MULTILANGUAGE\MULTILANGUAGE\RELEASE\DLLMAIN.OBJ|D:\NRH SOURCE\10.HEADSET\V1.0.55\DLOGIXSSERVER\MANPASLIB\MULTILANGUAGE\MULTILANGUAGE\RELEASE\MULTILANGUAGE.OBJ|D:\NRH SOURCE\10.HEADSET\V1.0.55\DLOGIXSSERVER\MANPASLIB\MULTILANGUAGE\MULTILANGUAGE\RELEASE\MULTILANGUAGE.RES|D:\NRH SOURCE\10.HEADSET\V1.0.55\DLOGIXSSERVER\MANPASLIB\MULTILANGUAGE\MULTILANGUAGE\RELEASE\PCH.OBJ
D:\NRH SOURCE\10.HEADSET\V1.0.55\HEADSET\SOURCE\RELEASE\MULTILANGUAGE.DLL
D:\NRH SOURCE\10.HEADSET\V1.0.55\DLOGIXSSERVER\MANPASLIB\MULTILANGUAGE\MULTILANGUAGE\RELEASE\MULTILANGUAGE.IPDB
D:\NRH SOURCE\10.HEADSET\V1.0.55\DLOGIXSSERVER\MANPASLIB\MULTILANGUAGE\MULTILANGUAGE\RELEASE\MULTILANGUAGE.IOBJ
D:\NRH SOURCE\10.HEADSET\V1.0.55\HEADSET\SOURCE\RELEASE\MULTILANGUAGE.PDB
