{
  "PREFIX": {
    "MI": "MANAGER CEventListItem, CUserListItem",
    "ML": "MANAGER CLoginDlg",
    "MM": "MANAGER CMonitorDlg",
    "MN": "MANAGER CMonitorListDlg",
    "MS": "MANAGER CSettingDlg",
    "MU": "MANAGER CUserDlg",
    "MD": "MANAGER CMainDlg"
  },
  "MS_KOREAN": {
    "KOREAN": "한국어",
    "ENGLISH": "한국어",
    "CHINA": "한국어",
    "JAPAN": "한국어"
  },
  "MS_ENGLISH": {
    "KOREAN": "ENGLISH",
    "ENGLISH": "ENGLISH",
    "CHINA": "ENGLISH",
    "JAPAN": "ENGLISH"
  },
  "MS_CHINESE": {
    "KOREAN": "简体中文",
    "ENGLISH": "简体中文",
    "CHINA": "简体中文",
    "JAPAN": "简体中文"
  },
  "MS_JAPANESE": {
    "KOREAN": "日本語",
    "ENGLISH": "日本語",
    "CHINA": "日本語",
    "JAPAN": "日本語"
  },
  "MD_0001": {
    "KOREAN": "네트워크 연결이 종료되었습니다.",
    "ENGLISH": "Network has been disconnected.",
    "CHINA": "网络连接结束",
    "JAPAN": "ネットワーク接続が終了されました。"
  },
  "MD_0002": {
    "KOREAN": "가입된 정보가 없습니다.\r\n신규 등록을 하세요.",
    "ENGLISH": "No information is registered.\r\nPlease register a new one.",
    "CHINA": "已加入的信息不存在\r\n请进行新登入",
    "JAPAN": "アカウント情報が見つかりません。\r\n新規登録を行ってください。"
  },
  "MD_0003": {
    "KOREAN": "입력한 PW가 다릅니다.\r\n다시 입력해 주세요.",
    "ENGLISH": "The PW entered is incorrect.\r\nPlease re-enter.",
    "CHINA": "输入的密码不正确\r\n请重新输入",
    "JAPAN": "パスワードが違います。\r\nもう一度入力してください。"
  },
  "MD_0004": {
    "KOREAN": "사용권한이 없습니다.",
    "ENGLISH": "Not authorized to use.",
    "CHINA": "无权限使用",
    "JAPAN": "使用権限がありません。"
  },
  "MD_0005": {
    "KOREAN": "Manager PC와 통신이 원활하지 않습니다.\r\n통신을 확인하시기 바랍니다.",
    "ENGLISH": "Communication with the Manager PC is not running smoothly.\r\nPlease check the communication.",
    "CHINA": "与管理员电脑通讯不畅\r\n请确认通讯状态",
    "JAPAN": "管理者PCとの通信が不安定です。\r\n通信状態を確認してください。"
  },
  "MD_0006": {
    "KOREAN": "로그인에 실패하였습니다.",
    "ENGLISH": "Failed to log in.",
    "CHINA": "登录失败",
    "JAPAN": "ログインに失敗しました。"
  },
  "MD_0007": {
    "KOREAN": "종료 하시겠습니까?",
    "ENGLISH": "Do you want to quit?",
    "CHINA": "你想退出吗？",
    "JAPAN": "終了しますか？"
  },
  "MD_0008": {
    "KOREAN": "삭제 하시겠습니까?",
    "ENGLISH": "Do you want to delete?",
    "CHINA": "您要删除吗？",
    "JAPAN": "削除しますか？"
  },
  "MD_0009": {
    "KOREAN": "다른 PC에서 로그인 하였습니다.\r\n현재 PC는 로그아웃 됩니다.",
    "ENGLISH": "You are logged in from another PC.\r\n Your current PC will be logged out.",
    "CHINA": "在其他电脑上登录了\r\n 当前电脑已注销",
    "JAPAN": "他のPCからログインしました。\r\n現在のPCは、ログアウトします。"
  },
  "MD_0010": {
    "KOREAN": "아이디가 삭제되어 로그아웃되었습니다.",
    "ENGLISH": "Your ID has been deleted and logged out.",
    "CHINA": "账号已被删除并注销",
    "JAPAN": "IDが削除され、ログアウトされました。"
  },
  "MD_0011": {
    "KOREAN": "그룹 정보가 맞지 않습니다.",
    "ENGLISH": "The group does not match.",
    "CHINA": "組不匹配。",
    "JAPAN": "グループが一致しません。"
  },
  "MU_0001": {
    "KOREAN": "등록에 실패하였습니다.",
    "ENGLISH": "Failed to register.",
    "CHINA": "登录失败",
    "JAPAN": "登録に失敗しました。"
  },
  "MU_0002": {
    "KOREAN": "등록에 실패하였습니다.",
    "ENGLISH": "Failed to register.",
    "CHINA": "登录失败",
    "JAPAN": "登録に失敗しました。"
  },
  "MU_0003": {
    "KOREAN": "ID:%s 삭제",
    "ENGLISH": "ID:%s delete",
    "CHINA": "删除:%s 账户",
    "JAPAN": "ID:%s 削除"
  },
  "MU_0004": {
    "KOREAN": "ID:%s 등록",
    "ENGLISH": "ID:%s register",
    "CHINA": "删除:%s 账户",
    "JAPAN": "ID:%s 登録"
  },
  "MU_0005": {
    "KOREAN": "처리에 실패하였습니다.",
    "ENGLISH": "Failed to process.",
    "CHINA": "处理失败",
    "JAPAN": "処理に失敗しました。"
  },
  "MU_0006": {
    "KOREAN": "ID:%s 등록",
    "ENGLISH": "ID:%s register",
    "CHINA": "ID:%s 登录",
    "JAPAN": "ID:%s 登録"
  },
  "MU_0007": {
    "KOREAN": "등록에 성공하였습니다.",
    "ENGLISH": "Successed registration.",
    "CHINA": "成功注册",
    "JAPAN": "登録に成功しました。"
  },
  "MU_0008": {
    "KOREAN": "관리자 계정이 이미 존재합니다.",
    "ENGLISH": "Administration account already exist.",
    "CHINA": "管理员账户已存在",
    "JAPAN": "管理者アカウントがすでに存在します。"
  },
  "MU_0009": {
    "KOREAN": "등록 가능한 사용자 수를 초과하였습니다.",
    "ENGLISH": "The number of users that can be registered has been exceeded.",
    "CHINA": "已超过可注册用户数",
    "JAPAN": "登録可能なユーザー数を超えました。"
  },
  "MU_0010": {
    "KOREAN": "로그인 후 등록할 수 있습니다.",
    "ENGLISH": "You can register after login.",
    "CHINA": "登录后可以登录",
    "JAPAN": "ログイン後、登録できます。"
  },
  "MU_0011": {
    "KOREAN": "등록에 실패하였습니다.",
    "ENGLISH": "Failed to register.",
    "CHINA": "登录失败",
    "JAPAN": "登録に失敗しました。"
  },
  "MU_0012": {
    "KOREAN": "ID 중복확인을 실행 하세요.",
    "ENGLISH": "Please double check your ID.",
    "CHINA": "请进行用户名重复确认",
    "JAPAN": "IDの重複チェックを行ってください。"
  },
  "MU_0013": {
    "KOREAN": "PW를 확인하세요.\n최소 %d글자, 최대 %d글자",
    "ENGLISH": "Please check your PW.\nminimum %dcharacter, maximum %dcharacter",
    "CHINA": "请确认密码\n至少 %d个字, 最多 %d个字",
    "JAPAN": "パスワードを確認してください。\n最小%d文字、最大%d文字"
  },
  "MU_0014": {
    "KOREAN": "PW는 특수문자,숫자,영문자 모두를 포함한 8글자 이상이 되어야 합니다. (공백(space bar), &&는 \r\n사용할 수 없습니다.)",
    "ENGLISH": "PW must be at least 8 characters, including all special characters, numbers, and English characters. (space bar, && cannot be used.)",
    "CHINA": "密码需要包括特殊文字，数字英文字母共8个字以上 (空格键和 && 是不允许的。)",
    "JAPAN": "パスワードは特殊文字、数字、英文字すべてを含む8文字以上の設定でお願いします。(スペースバー、&&は使用できません。)"
  },
  "MU_0015": {
    "KOREAN": "입력한 PW가 다릅니다.\r\n다시 입력해 주세요.",
    "ENGLISH": "The PW entered is incorrect.\r\nPlease re-enter.",
    "CHINA": "输入的密码不正确\r\n请重新输入",
    "JAPAN": "パスワードが違います。\r\nもう一度入力してください。"
  },
  "MU_0016": {
    "KOREAN": "사용 가능한 ID 입니다.\n사용하시겠습니까?",
    "ENGLISH": "You may use this ID.\nWould like to use it?",
    "CHINA": "可使用的用户名\n您要使用吗？",
    "JAPAN": "使用できるIDです。\n使用しますか？"
  },
  "MU_0017": {
    "KOREAN": "중복된 아이디가 존재합니다. ID를 입력 하세요.",
    "ENGLISH": "There is a duplicate ID. Please enter your ID.",
    "CHINA": "已存在账户，请重新输入账户",
    "JAPAN": "重複したIDを存在します。IDを入力してください。"
  },
  "MU_0018": {
    "KOREAN": "설정메뉴에서 접속방법을 설정해주세요.",
    "ENGLISH": "Please set the connection method in the setting menu.",
    "CHINA": "请在设置菜单中设置连接方法",
    "JAPAN": "設定メニューから接続方法を設定してください。"
  },
  "MU_0019": {
    "KOREAN": "ID를 입력 하세요.",
    "ENGLISH": "Please enter your ID.",
    "CHINA": "请输入用户名",
    "JAPAN": "IDを入力してください。"
  },
  "MU_0020": {
    "KOREAN": "ID를 확인하세요.\n최소 %d글자, 최대 %d글자",
    "ENGLISH": "Please check your ID.\nminimum %dcharacter, maximum %dcharacter",
    "CHINA": "请确认账户\n至少 %d个字, 最多 %d个字",
    "JAPAN": "IDを確認してください。\n最小%d文字、最大%d文字"
  },
  "MU_0021": {
    "KOREAN": "중복확인에 실패하였습니다.",
    "ENGLISH": "Failed to double check.",
    "CHINA": "失败重复确认",
    "JAPAN": "重複確認に失敗しました"
  },
  "MU_0022": {
    "KOREAN": "사용자 등록",
    "ENGLISH": "User registration",
    "CHINA": "登录用户",
    "JAPAN": "ユーザー登録"
  },
  "MU_0023": {
    "KOREAN": "관리자",
    "ENGLISH": "Admin",
    "CHINA": "管理员",
    "JAPAN": "管理者"
  },
  "MU_0024": {
    "KOREAN": "사용자",
    "ENGLISH": "Client",
    "CHINA": "用户",
    "JAPAN": "ユーザー"
  },
  "MU_0025": {
    "KOREAN": "관리자",
    "ENGLISH": "Admin",
    "CHINA": "管理员",
    "JAPAN": "管理者"
  },
  "MU_0026": {
    "KOREAN": "사용자",
    "ENGLISH": "Client",
    "CHINA": "用户",
    "JAPAN": "ユーザー"
  },
  "MU_0027": {
    "KOREAN": "관리자",
    "ENGLISH": "Admin",
    "CHINA": "管理员",
    "JAPAN": "管理者"
  },
  "MU_0028": {
    "KOREAN": "사용 할 수 없는 ID 입니다.\r\n다시 입력 해 주세요",
    "ENGLISH": "This ID cannot be used.\r\nPlease enter again",
    "CHINA": "不能使用的用户名\r\n请重新输入",
    "JAPAN": "使用できないIDです。\r\nもう一度入力してください。"
  },
  "MU_0029": {
    "KOREAN": "ID는 영문자,숫자,특수문자\r\n사용이 가능합니다. (공백(space bar), &&는 사용할 수 없습니다.)",
    "ENGLISH": "ID can be alphabetic, numeric and special character. (space bar, && cannot be used.)",
    "CHINA": "用户名（ID）可使用英文、数字、特殊字符 (空格键和 &&是不允许的。)",
    "JAPAN": "IDは英字、数字、特殊文字が\r\nすべて含む必要があります。(スペースバー、&&は使用できません。)"
  },
  "MU_0030": {
    "KOREAN": "기존 접속 속성과 연동된 ID정보가 존재합니다.",
    "ENGLISH": "Existing ID information exists.",
    "CHINA": "已存在与现有连接方式联动的账户信息。",
    "JAPAN": "既存の接続プロパティと連動したID情報が存在します。"
  },
  "MU_0031": {
    "KOREAN": "기존 정보를 삭제하고, 신규 ID를 생성하시려면 \"예\"를 선택하십시오.",
    "ENGLISH": "Select \"Yes\" to delete the existing ID and create a new ID.",
    "CHINA": "删除现有信息， 并注册新账户， 请按\" 是 \" 。 ",
    "JAPAN": "既存の情報を削除して新規IDを作成するには、\"はい\" を選択してください。"
  },
  "MU_0032": {
    "KOREAN": "기존 ID를 사용하시려면 \"아니오\"를 선택하십시오.",
    "ENGLISH": "Select \"No\" to use an existing ID.",
    "CHINA": "如果您想要使用现有账户 ， 请按\" 不是 \" 。",
    "JAPAN": "既存のIDを使用するには、\"いいえ\" を選択してください。"
  },
  "MU_0033": {
    "KOREAN": "그룹이 존재하지 않습니다.",
    "ENGLISH": "The group does not exist.",
    "CHINA": "該組不存在。",
    "JAPAN": "グループは存在しません。"
  },
  "MS_0001": {
    "KOREAN": "현재 최신 버전입니다.",
    "ENGLISH": "Currently latest version.",
    "CHINA": "已最新版本.",
    "JAPAN": "現在、最新バージョンです。"
  },
  "MS_0002": {
    "KOREAN": "업그레이드 중입니다.",
    "ENGLISH": "Upgrading.",
    "CHINA": "正在更新",
    "JAPAN": "アップグレード中です。"
  },
  "MS_0003": {
    "KOREAN": "업그레이드가 실패 하였습니다.\r\n다시 시도 하세요.",
    "ENGLISH": "Fail to Upgrade.\r\nPlease try again",
    "CHINA": "更新失败\r\n请重新试一试",
    "JAPAN": "アップグレードが失敗しました。\r\nやり直してください。"
  },
  "MS_0004": {
    "KOREAN": "지원하지 않는 기능입니다.",
    "ENGLISH": "Not supported function.",
    "CHINA": "不支持的功能",
    "JAPAN": "サポートできない機能です。"
  },
  "MS_0005": {
    "KOREAN": "생성 가능한 그룹 수를 초과하였습니다.",
    "ENGLISH": "You have exceeded the number of groups that can be created.",
    "CHINA": "已超过可生成组数",
    "JAPAN": "作れるグループ数を超えました。"
  },
  "MS_0006": {
    "KOREAN": "그룹 생성에 실패하였습니다.",
    "ENGLISH": "Failed to create group.",
    "CHINA": "失败生成组",
    "JAPAN": "グループの作成に失敗しました。"
  },
  "MS_0007": {
    "KOREAN": "그룹 생성에 실패하였습니다.",
    "ENGLISH": "Failed to create group.",
    "CHINA": "失败生成组",
    "JAPAN": "グループの作成に失敗しました。"
  },
  "MS_0008": {
    "KOREAN": "설정 온도를 저장하시겠습니까?.",
    "ENGLISH": "Do you want to save the setted temperature?",
    "CHINA": "要保存设定温度？",
    "JAPAN": "設定温度を保存しますか？"
  },
  "MS_0009": {
    "KOREAN": "접속방법의 URL 새로고침을 실행하세요.",
    "ENGLISH": "Refresh the URL of the connection method.",
    "CHINA": "请刷新连接方法的URL",
    "JAPAN": "接続方法のURL更新を実行します。"
  },
  "MS_0010": {
    "KOREAN": "Key를 수정할 수 없습니다.\n새로고침을 실행하거나,\n삭제만 가능합니다.",
    "ENGLISH": "The key can't be adjusted.\nOnly refresh,\nor deleting is possible.",
    "CHINA": "无法修改Key\n只允许刷新或\n删除",
    "JAPAN": "Keyの修正は不可能です。\n再読み込みを実行\nまたは削除のみ可能です。"
  },
  "MS_0011": {
    "KOREAN": "설정 온도가 높습니다.",
    "ENGLISH": "The set temperature is high.",
    "CHINA": "您设定的温度高",
    "JAPAN": "設定温度が高いです。"
  },
  "MS_0012": {
    "KOREAN": "설정 온도가 낮습니다.",
    "ENGLISH": "The set temperature is low.",
    "CHINA": "您设定的温度低",
    "JAPAN": "設定温度が低いです。"
  },
  "MS_0013": {
    "KOREAN": "언 어",
    "ENGLISH": "Language",
    "CHINA": "语言",
    "JAPAN": "言語設定"
  },
  "MS_0014": {
    "KOREAN": "발열자 알림\n설정온도",
    "ENGLISH": "Setting temperature\nnotification",
    "CHINA": "设定温度\n提示发烧者",
    "JAPAN": "発熱者アラーム\n設定温度"
  },
  "MS_0015": {
    "KOREAN": "Client 접속 방법",
    "ENGLISH": "Client Access method",
    "CHINA": "Client 连接方法",
    "JAPAN": "ユーザー接続方法"
  },
  "MS_0016": {
    "KOREAN": "소프트웨어 업데이트",
    "ENGLISH": "Software update",
    "CHINA": "软件更新",
    "JAPAN": "ソフトウェアアップデート"
  },
  "MS_0017": {
    "KOREAN": "현재 버전 : ",
    "ENGLISH": "Current version : ",
    "CHINA": "现在版本 : ",
    "JAPAN": "現在バージョン : "
  },
  "MS_0018": {
    "KOREAN": "최신 버전 : ",
    "ENGLISH": "Latest version : ",
    "CHINA": "最新版本 : ",
    "JAPAN": "最新バージョン : "
  },
  "MS_0019": {
    "KOREAN": "프로그램정보",
    "ENGLISH": "Program information",
    "CHINA": "程序信息",
    "JAPAN": "プログラム情報"
  },
  "MS_0020": {
    "KOREAN": "",
    "ENGLISH": "",
    "CHINA": "",
    "JAPAN": ""
  },
  "MS_0021": {
    "KOREAN": "NRH Management System 2000",
    "ENGLISH": "NRH Management System 2000",
    "CHINA": "NRH Management System 2000",
    "JAPAN": "NRH Management System 2000"
  },
  "MS_0022": {
    "KOREAN": "최신 버전 : ",
    "ENGLISH": "Latest version : ",
    "CHINA": "最新版本 : ",
    "JAPAN": "最新バージョン : "
  },
  "MS_0023": {
    "KOREAN": "언  어",
    "ENGLISH": "Language",
    "CHINA": "语言",
    "JAPAN": "言語設定"
  },
  "MS_0025": {
    "KOREAN": "언어를 변경하시겠습니까?\r\n변경 시 프로그램을 재시작 합니다.",
    "ENGLISH": "Would you like to change the language?\r\nRestart the program on change.",
    "CHINA": "确定要变更语言吗？\r\n变更时重新开始程序",
    "JAPAN": "言語を変更しますか？\r\n言語変更を選択したらプログラムが再起動します。"
  },
  "MS_0026": {
    "KOREAN": "URL을 수정할 수 없습니다.\n새로고침을 실행하세요.",
    "ENGLISH": "The URL cannot be modified.\nPlease run refresh.",
    "CHINA": "无法修改URL，请重头开始",
    "JAPAN": "URLの修正ができません。\n再読み込みを実行してください。"
  },
  "MS_0027": {
    "KOREAN": "'경고'온도는 '주의'온도보다 낮을 수 없습니다.",
    "ENGLISH": "'Warning' temperature cannot be lower than 'Caution' temperature.",
    "CHINA": "'警告'温度不得低于'注意'温度",
    "JAPAN": "「警告」の温度は「注意」の温度より低く設定できません。"
  },
  "MS_0028": {
    "KOREAN": "'주의'온도는 '경고'온도보다 높을 수 없습니다.",
    "ENGLISH": "'Caution' temperature cannot be higher than 'Warning' temperature.",
    "CHINA": "'注意'温度不能高于'警告'温度",
    "JAPAN": "「注意」の温度は「警告」の温度より高く設定できません。"
  },
  "MS_0029": {
    "KOREAN": "서버 접속에 실패하였습니다.",
    "ENGLISH": "Server connection failed.",
    "CHINA": "服务器连接失败",
    "JAPAN": "サーバー接続に失敗しました。"
  },
  "MS_0030": {
    "KOREAN": "지정 그룹의 접속 속성을 변경하게 되면,",
    "ENGLISH": "If you change the group's connection properties,",
    "CHINA": "如果更改指定的连接方式，",
    "JAPAN": "指定グループの接続プロパティを変更する場合、"
  },
  "MS_0031": {
    "KOREAN": "ID를 신규로 생성해야 합니다. 진행하시려면",
    "ENGLISH": "you need to create a new ID. To make changes,",
    "CHINA": "则需要新注册有部分账户 。",
    "JAPAN": "一部のIDを新規で作る必要があります。変更する場合は、"
  },
  "MS_0032": {
    "KOREAN": "*테크니션 패스워드를 입력하십시오.",
    "ENGLISH": "enter *Technician Password.",
    "CHINA": "欲进行变更，请输入*技术密码。",
    "JAPAN": "*テクニシャンのパスワードを入力してください。"
  },
  "MS_0033": {
    "KOREAN": "(*테크니션 매뉴얼 마지막 페이지 참조)",
    "ENGLISH": "(*Refer to the last page of the Technician Manual)",
    "CHINA": "（*参考技术手册最后一页）",
    "JAPAN": "(*テクニシャンマニュアル最後のページ参照)"
  },
  "MS_0034": {
    "KOREAN": "PW가 틀렸습니다.",
    "ENGLISH": "PW is wrong",
    "CHINA": "密码不正确",
    "JAPAN": "パスワードが間違っています。"
  },
  "MS_0035": {
    "KOREAN": "PW를 입력하세요.",
    "ENGLISH": "Please enter PW.",
    "CHINA": "请输入密码",
    "JAPAN": "パスワードを入力してください。"
  },
  "MN_0001": {
    "KOREAN": "발열자가 있습니다.\r\n확인하십시오.",
    "ENGLISH": "We have a fever.\r\nPlease check.",
    "CHINA": "有发烧者\r\n请确认",
    "JAPAN": "発熱者がいます。\r\n確認してください。."
  },
  "MM_0001": {
    "KOREAN": " °C",
    "ENGLISH": " °C",
    "CHINA": " °C",
    "JAPAN": " °C"
  },
  "MM_0002": {
    "KOREAN": "로그아웃 하시겠습니까?",
    "ENGLISH": "Would you like to log out?",
    "CHINA": "确定要退出吗？",
    "JAPAN": "ログアウトしますか？"
  },
  "MM_0003": {
    "KOREAN": "ID: %s",
    "ENGLISH": "ID: %s",
    "CHINA": "ID: %s",
    "JAPAN": "ID: %s"
  },
  "MM_0004": {
    "KOREAN": " °C",
    "ENGLISH": " °C",
    "CHINA": " °C",
    "JAPAN": " °C"
  },
  "MM_0005": {
    "KOREAN": "발열자 알림 설정온도",
    "ENGLISH": "Setting temperature notification",
    "CHINA": "设定温度提示发烧者",
    "JAPAN": "発熱者アラーム設定温度"
  },
  "ML_0001": {
    "KOREAN": "설정메뉴에서 접속방법을 설정해주세요.",
    "ENGLISH": "Please set the connection method in the setting menu.",
    "CHINA": "请在设置菜单中设置连接方法",
    "JAPAN": "設定メニューから接続方法を設定してください。"
  },
  "ML_0002": {
    "KOREAN": "ID를 입력 하세요.",
    "ENGLISH": "Please enter your ID.",
    "CHINA": "请输入用户名",
    "JAPAN": "IDを入力してください。"
  },
  "ML_0003": {
    "KOREAN": "Password를 입력하세요.",
    "ENGLISH": "Please enter your password.",
    "CHINA": "请输入密码",
    "JAPAN": "パスワードを入力してください。"
  },
  "ML_0004": {
    "KOREAN": "LOGIN",
    "ENGLISH": "LOGIN",
    "CHINA": "登录",
    "JAPAN": "ログイン"
  },
  "MI_0001": {
    "KOREAN": "관리자",
    "ENGLISH": "Administrator",
    "CHINA": "管理员",
    "JAPAN": "管理者"
  },
  "MI_0002": {
    "KOREAN": "사용자",
    "ENGLISH": "Client",
    "CHINA": "用户",
    "JAPAN": "ユーザー"
  },
  "MI_0003": {
    "KOREAN": "삭제",
    "ENGLISH": "Delete",
    "CHINA": "删除",
    "JAPAN": "削除"
  },
  "MK_0001": {
    "KOREAN": "공백(space bar), 특수 문자 &&는 \r\n사용할 수 없습니다.",
    "ENGLISH": "The space bar and the special character && cannot be used.",
    "CHINA": "不能使用空格键和特殊字符&&。",
    "JAPAN": "スペースバー、特殊文字＆&は使用できません。"
  }
}
