^D:\NRH SOURCE\10.HEADSET\V1.0.54\HEADSET\SOURCE\STM\STMWRITELIB\DEBUG\INI.OBJ|D:\NRH SOURCE\10.HEADSET\V1.0.54\HEADSET\SOURCE\STM\STMWRITELIB\DEBUG\PCH.OBJ|D:\NRH SOURCE\10.HEADSET\V1.0.54\HEADSET\SOURCE\STM\STMWRITELIB\DEBUG\STMWRITELIB.OBJ|D:\NRH SOURCE\10.HEADSET\V1.0.54\HEADSET\SOURCE\STM\STMWRITELIB\DEBUG\STMWRITELIB.RES
D:\NRH SOURCE\10.HEADSET\V1.0.54\HEADSET\SOURCE\DEBUG\STMWRITELIB.ILK
D:\NRH SOURCE\10.HEADSET\V1.0.54\HEADSET\SOURCE\DEBUG\STMWRITELIB.DLL
D:\NRH SOURCE\10.HEADSET\V1.0.54\HEADSET\SOURCE\DEBUG\STMWRITELIB.PDB
