^D:\01.PROJECT\03PC\10.HEADSET\V1.0.53\HEADSET\SOURCE\STM\STUARTBLLIB\RELEASE\RS232.SBR|D:\01.PROJECT\03PC\10.HEADSET\V1.0.53\HEADSET\SOURCE\STM\STUARTBLLIB\RELEASE\STUARTBLLIB.SBR
D:\01.PROJECT\03PC\10.HEADSET\V1.0.53\HEADSET\SOURCE\STM\STUARTBLLIB\RELEASE\STUARTBLLIB.BSC
^D:\01.PROJECT\03PC\10.HEADSET\V1.0.54\HEADSET\SOURCE\STM\STUARTBLLIB\RELEASE\RS232.SBR|D:\01.PROJECT\03PC\10.HEADSET\V1.0.54\HEADSET\SOURCE\STM\STUARTBLLIB\RELEASE\STUARTBLLIB.SBR
D:\01.PROJECT\03PC\10.HEADSET\V1.0.54\HEADSET\SOURCE\STM\STUARTBLLIB\RELEASE\STUARTBLLIB.BSC
^D:\NRH SOURCE\10.HEADSET\V1.0.54\HEADSET\SOURCE\STM\STUARTBLLIB\RELEASE\RS232.SBR|D:\NRH SOURCE\10.HEADSET\V1.0.54\HEADSET\SOURCE\STM\STUARTBLLIB\RELEASE\STUARTBLLIB.SBR
D:\NRH SOURCE\10.HEADSET\V1.0.54\HEADSET\SOURCE\STM\STUARTBLLIB\RELEASE\STUARTBLLIB.BSC
^D:\NRH SOURCE\10.HEADSET\V1.0.55\HEADSET\SOURCE\STM\STUARTBLLIB\RELEASE\RS232.SBR|D:\NRH SOURCE\10.HEADSET\V1.0.55\HEADSET\SOURCE\STM\STUARTBLLIB\RELEASE\STUARTBLLIB.SBR
D:\NRH SOURCE\10.HEADSET\V1.0.55\HEADSET\SOURCE\STM\STUARTBLLIB\RELEASE\STUARTBLLIB.BSC
