^D:\01.Project\03. PC\10.Headset\V1.0.53\headset\source\STM\STUARTBLLIB\STUARTBLLIB.vcxproj
D:\01.Project\03. PC\10.Headset\V1.0.53\headset\source\STM\STUARTBLLIB\Release\STUARTBLLIB.lib
D:\01.Project\03. PC\10.Headset\V1.0.53\headset\source\STM\STUARTBLLIB\Release\STUARTBLLIB.exp
^D:\01.Project\03PC\10.Headset\V1.0.53\headset\source\STM\STUARTBLLIB\STUARTBLLIB.vcxproj
D:\01.Project\03PC\10.Headset\V1.0.53\headset\source\STM\STUARTBLLIB\Release\STUARTBLLIB.lib
D:\01.Project\03PC\10.Headset\V1.0.53\headset\source\STM\STUARTBLLIB\Release\STUARTBLLIB.exp
^D:\01.Project\03PC\10.Headset\V1.0.54\headset\source\STM\STUARTBLLIB\STUARTBLLIB.vcxproj
D:\01.Project\03PC\10.Headset\V1.0.54\headset\source\STM\STUARTBLLIB\Release\STUARTBLLIB.lib
D:\01.Project\03PC\10.Headset\V1.0.54\headset\source\STM\STUARTBLLIB\Release\STUARTBLLIB.exp
^D:\NRH source\10.Headset\V1.0.54\headset\source\STM\STUARTBLLIB\STUARTBLLIB.vcxproj
D:\NRH source\10.Headset\V1.0.54\headset\source\STM\STUARTBLLIB\Release\STUARTBLLIB.lib
D:\NRH source\10.Headset\V1.0.54\headset\source\STM\STUARTBLLIB\Release\STUARTBLLIB.exp
^D:\NRH source\10.Headset\V1.0.55\headset\source\STM\STUARTBLLIB\STUARTBLLIB.vcxproj
D:\NRH source\10.Headset\V1.0.55\headset\source\STM\STUARTBLLIB\Release\STUARTBLLIB.lib
D:\NRH source\10.Headset\V1.0.55\headset\source\STM\STUARTBLLIB\Release\STUARTBLLIB.exp
