^D:\01.PROJECT\03. PC\10.HEADSET\V1.0.53\DLOGIXSSERVER\SERVERTCP\NRHSERVICE\DEBUG\AESSECURITY.OBJ|D:\01.PROJECT\03. PC\10.HEADSET\V1.0.53\DLOGIXSSERVER\SERVERTCP\NRHSERVICE\DEBUG\DLOGIXSTCPPACKET.OBJ|D:\01.PROJECT\03. PC\10.HEADSET\V1.0.53\DLOGIXSSERVER\SERVERTCP\NRHSERVICE\DEBUG\FIREWALLCONTROL.OBJ|D:\01.PROJECT\03. PC\10.HEADSET\V1.0.53\DLOGIXSSERVER\SERVERTCP\NRHSERVICE\DEBUG\JMUTEX.OBJ|D:\01.PROJECT\03. PC\10.HEADSET\V1.0.53\DLOGIXSSERVER\SERVERTCP\NRHSERVICE\DEBUG\JTHREAD.OBJ|D:\01.PROJECT\03. PC\10.HEADSET\V1.0.53\DLOGIXSSERVER\SERVERTCP\NRHSERVICE\DEBUG\LOG.OBJ|D:\01.PROJECT\03. PC\10.HEADSET\V1.0.53\DLOGIXSSERVER\SERVERTCP\NRHSERVICE\DEBUG\NRHSERVICE.OBJ|D:\01.PROJECT\03. PC\10.HEADSET\V1.0.53\DLOGIXSSERVER\SERVERTCP\NRHSERVICE\DEBUG\NRHSERVICE.RES|D:\01.PROJECT\03. PC\10.HEADSET\V1.0.53\DLOGIXSSERVER\SERVERTCP\NRHSERVICE\DEBUG\PCH.OBJ|D:\01.PROJECT\03. PC\10.HEADSET\V1.0.53\DLOGIXSSERVER\SERVERTCP\NRHSERVICE\DEBUG\PROFILE.OBJ|D:\01.PROJECT\03. PC\10.HEADSET\V1.0.53\DLOGIXSSERVER\SERVERTCP\NRHSERVICE\DEBUG\SERVICEUTIL.OBJ|D:\01.PROJECT\03. PC\10.HEADSET\V1.0.53\DLOGIXSSERVER\SERVERTCP\NRHSERVICE\DEBUG\TCPPROCESS.OBJ
D:\01.PROJECT\03. PC\10.HEADSET\V1.0.53\DLOGIXSSERVER\SERVERTCP\NRHSERVICE\DEBUG\NRHSERVICE.ILK
D:\01.PROJECT\03. PC\10.HEADSET\V1.0.53\DLOGIXSSERVER\SERVERTCP\DEBUG\NRHSERVICE.EXE
D:\01.PROJECT\03. PC\10.HEADSET\V1.0.53\DLOGIXSSERVER\SERVERTCP\DEBUG\NRHSERVICE.PDB
^D:\01.PROJECT\03PC\10.HEADSET\V1.0.54\DLOGIXSSERVER\SERVERTCP\NRHSERVICE\DEBUG\AESSECURITY.OBJ|D:\01.PROJECT\03PC\10.HEADSET\V1.0.54\DLOGIXSSERVER\SERVERTCP\NRHSERVICE\DEBUG\DLOGIXSTCPPACKET.OBJ|D:\01.PROJECT\03PC\10.HEADSET\V1.0.54\DLOGIXSSERVER\SERVERTCP\NRHSERVICE\DEBUG\FIREWALLCONTROL.OBJ|D:\01.PROJECT\03PC\10.HEADSET\V1.0.54\DLOGIXSSERVER\SERVERTCP\NRHSERVICE\DEBUG\JMUTEX.OBJ|D:\01.PROJECT\03PC\10.HEADSET\V1.0.54\DLOGIXSSERVER\SERVERTCP\NRHSERVICE\DEBUG\JTHREAD.OBJ|D:\01.PROJECT\03PC\10.HEADSET\V1.0.54\DLOGIXSSERVER\SERVERTCP\NRHSERVICE\DEBUG\LOG.OBJ|D:\01.PROJECT\03PC\10.HEADSET\V1.0.54\DLOGIXSSERVER\SERVERTCP\NRHSERVICE\DEBUG\NRHSERVICE.OBJ|D:\01.PROJECT\03PC\10.HEADSET\V1.0.54\DLOGIXSSERVER\SERVERTCP\NRHSERVICE\DEBUG\NRHSERVICE.RES|D:\01.PROJECT\03PC\10.HEADSET\V1.0.54\DLOGIXSSERVER\SERVERTCP\NRHSERVICE\DEBUG\PCH.OBJ|D:\01.PROJECT\03PC\10.HEADSET\V1.0.54\DLOGIXSSERVER\SERVERTCP\NRHSERVICE\DEBUG\PROFILE.OBJ|D:\01.PROJECT\03PC\10.HEADSET\V1.0.54\DLOGIXSSERVER\SERVERTCP\NRHSERVICE\DEBUG\SERVICEUTIL.OBJ|D:\01.PROJECT\03PC\10.HEADSET\V1.0.54\DLOGIXSSERVER\SERVERTCP\NRHSERVICE\DEBUG\TCPPROCESS.OBJ
D:\01.PROJECT\03PC\10.HEADSET\V1.0.54\DLOGIXSSERVER\SERVERTCP\NRHSERVICE\DEBUG\NRHSERVICE.ILK
D:\01.PROJECT\03PC\10.HEADSET\V1.0.54\DLOGIXSSERVER\SERVERTCP\DEBUG\NRHSERVICE.EXE
D:\01.PROJECT\03PC\10.HEADSET\V1.0.54\DLOGIXSSERVER\SERVERTCP\DEBUG\NRHSERVICE.PDB
