^D:\01.PROJECT\03. PC\10.HEADSET\V1.0.53\DLOGIXSSERVER\SERVERTCP\NRHSERVICE\DEBUG\AESSECURITY.OBJ|D:\01.PROJECT\03. PC\10.HEADSET\V1.0.53\DLOGIXSSERVER\SERVERTCP\NRHSERVICE\DEBUG\DLOGIXSTCPPACKET.OBJ|D:\01.PROJECT\03. PC\10.HEADSET\V1.0.53\DLOGIXSSERVER\SERVERTCP\NRHSERVICE\DEBUG\FIREWALLCONTROL.OBJ|D:\01.PROJECT\03. PC\10.HEADSET\V1.0.53\DLOGIXSSERVER\SERVERTCP\NRHSERVICE\DEBUG\JMUTEX.OBJ|D:\01.PROJECT\03. PC\10.HEADSET\V1.0.53\DLOGIXSSERVER\SERVERTCP\NRHSERVICE\DEBUG\JTHREAD.OBJ|D:\01.PROJECT\03. PC\10.HEADSET\V1.0.53\DLOGIXSSERVER\SERVERTCP\NRHSERVICE\DEBUG\LOG.OBJ|D:\01.PROJECT\03. PC\10.HEADSET\V1.0.53\DLOGIXSSERVER\SERVERTCP\NRHSERVICE\DEBUG\NRHSERVICE.OBJ|D:\01.PROJECT\03. PC\10.HEADSET\V1.0.53\DLOGIXSSERVER\SERVERTCP\NRHSERVICE\DEBUG\NRHSERVICE.RES|D:\01.PROJECT\03. PC\10.HEADSET\V1.0.53\DLOGIXSSERVER\SERVERTCP\NRHSERVICE\DEBUG\PCH.OBJ|D:\01.PROJECT\03. PC\10.HEADSET\V1.0.53\DLOGIXSSERVER\SERVERTCP\NRHSERVICE\DEBUG\PROFILE.OBJ|D:\01.PROJECT\03. PC\10.HEADSET\V1.0.53\DLOGIXSSERVER\SERVERTCP\NRHSERVICE\DEBUG\SERVICEUTIL.OBJ|D:\01.PROJECT\03. PC\10.HEADSET\V1.0.53\DLOGIXSSERVER\SERVERTCP\NRHSERVICE\DEBUG\TCPPROCESS.OBJ
D:\01.PROJECT\03. PC\10.HEADSET\V1.0.53\DLOGIXSSERVER\SERVERTCP\DEBUG\SERVERTCP.LIB
D:\01.PROJECT\03. PC\10.HEADSET\V1.0.53\DLOGIXSSERVER\SERVERTCP\DEBUG\SERVERUDP.LIB
D:\01.PROJECT\03. PC\10.HEADSET\V1.0.53\DLOGIXSSERVER\MANPASLIB\OPENSOURCE\OPENSSL-WIN32\LIB\VC\STATIC\LIBCRYPTO32MTD.LIB
D:\01.PROJECT\03. PC\10.HEADSET\V1.0.53\DLOGIXSSERVER\MANPASLIB\OPENSOURCE\OPENSSL-WIN32\LIB\VC\STATIC\LIBSSL32MTD.LIB
D:\01.PROJECT\03. PC\10.HEADSET\V1.0.53\DLOGIXSSERVER\MANPASLIB\SQLITE3\SQLITE3_X86.LIB
D:\01.PROJECT\03. PC\10.HEADSET\V1.0.53\DLOGIXSSERVER\SERVERTCP\NRHSERVICE\DEBUG\NRHSERVICE.RES
D:\01.PROJECT\03. PC\10.HEADSET\V1.0.53\DLOGIXSSERVER\SERVERTCP\NRHSERVICE\DEBUG\DLOGIXSTCPPACKET.OBJ
D:\01.PROJECT\03. PC\10.HEADSET\V1.0.53\DLOGIXSSERVER\SERVERTCP\NRHSERVICE\DEBUG\AESSECURITY.OBJ
D:\01.PROJECT\03. PC\10.HEADSET\V1.0.53\DLOGIXSSERVER\SERVERTCP\NRHSERVICE\DEBUG\LOG.OBJ
D:\01.PROJECT\03. PC\10.HEADSET\V1.0.53\DLOGIXSSERVER\SERVERTCP\NRHSERVICE\DEBUG\PROFILE.OBJ
D:\01.PROJECT\03. PC\10.HEADSET\V1.0.53\DLOGIXSSERVER\SERVERTCP\NRHSERVICE\DEBUG\JMUTEX.OBJ
D:\01.PROJECT\03. PC\10.HEADSET\V1.0.53\DLOGIXSSERVER\SERVERTCP\NRHSERVICE\DEBUG\JTHREAD.OBJ
D:\01.PROJECT\03. PC\10.HEADSET\V1.0.53\DLOGIXSSERVER\SERVERTCP\NRHSERVICE\DEBUG\FIREWALLCONTROL.OBJ
D:\01.PROJECT\03. PC\10.HEADSET\V1.0.53\DLOGIXSSERVER\SERVERTCP\NRHSERVICE\DEBUG\SERVICEUTIL.OBJ
D:\01.PROJECT\03. PC\10.HEADSET\V1.0.53\DLOGIXSSERVER\SERVERTCP\NRHSERVICE\DEBUG\NRHSERVICE.OBJ
D:\01.PROJECT\03. PC\10.HEADSET\V1.0.53\DLOGIXSSERVER\SERVERTCP\NRHSERVICE\DEBUG\PCH.OBJ
D:\01.PROJECT\03. PC\10.HEADSET\V1.0.53\DLOGIXSSERVER\SERVERTCP\NRHSERVICE\DEBUG\TCPPROCESS.OBJ
C:\PROGRAM FILES (X86)\MICROSOFT VISUAL STUDIO\2019\PROFESSIONAL\VC\TOOLS\MSVC\14.29.30133\INCLUDE\MANIFEST\DPIAWARE.MANIFEST
C:\WINDOWS\GLOBALIZATION\SORTING\SORTDEFAULT.NLS
C:\PROGRAM FILES (X86)\MICROSOFT VISUAL STUDIO\2019\PROFESSIONAL\VC\TOOLS\MSVC\14.29.30133\ATLMFC\LIB\X86\MFC140UD.LIB
C:\PROGRAM FILES (X86)\MICROSOFT VISUAL STUDIO\2019\PROFESSIONAL\VC\TOOLS\MSVC\14.29.30133\ATLMFC\LIB\X86\MFCS140UD.LIB
C:\PROGRAM FILES (X86)\MICROSOFT VISUAL STUDIO\2019\PROFESSIONAL\VC\TOOLS\MSVC\14.29.30133\LIB\X86\MSVCRTD.LIB
C:\PROGRAM FILES (X86)\WINDOWS KITS\10\LIB\10.0.22000.0\UM\X86\KERNEL32.LIB
C:\PROGRAM FILES (X86)\WINDOWS KITS\10\LIB\10.0.22000.0\UM\X86\USER32.LIB
C:\PROGRAM FILES (X86)\WINDOWS KITS\10\LIB\10.0.22000.0\UM\X86\GDI32.LIB
C:\PROGRAM FILES (X86)\WINDOWS KITS\10\LIB\10.0.22000.0\UM\X86\MSIMG32.LIB
C:\PROGRAM FILES (X86)\WINDOWS KITS\10\LIB\10.0.22000.0\UM\X86\COMDLG32.LIB
C:\PROGRAM FILES (X86)\WINDOWS KITS\10\LIB\10.0.22000.0\UM\X86\WINSPOOL.LIB
C:\PROGRAM FILES (X86)\WINDOWS KITS\10\LIB\10.0.22000.0\UM\X86\ADVAPI32.LIB
C:\PROGRAM FILES (X86)\WINDOWS KITS\10\LIB\10.0.22000.0\UM\X86\SHELL32.LIB
C:\PROGRAM FILES (X86)\WINDOWS KITS\10\LIB\10.0.22000.0\UM\X86\COMCTL32.LIB
C:\PROGRAM FILES (X86)\WINDOWS KITS\10\LIB\10.0.22000.0\UM\X86\SHLWAPI.LIB
C:\PROGRAM FILES (X86)\WINDOWS KITS\10\LIB\10.0.22000.0\UM\X86\UXTHEME.LIB
C:\PROGRAM FILES (X86)\WINDOWS KITS\10\LIB\10.0.22000.0\UM\X86\WINDOWSCODECS.LIB
C:\PROGRAM FILES (X86)\WINDOWS KITS\10\LIB\10.0.22000.0\UM\X86\UUID.LIB
C:\PROGRAM FILES (X86)\MICROSOFT VISUAL STUDIO\2019\PROFESSIONAL\VC\TOOLS\MSVC\14.29.30133\ATLMFC\LIB\X86\ATLS.LIB
C:\PROGRAM FILES (X86)\WINDOWS KITS\10\LIB\10.0.22000.0\UM\X86\OLE32.LIB
C:\PROGRAM FILES (X86)\WINDOWS KITS\10\LIB\10.0.22000.0\UM\X86\OLEAUT32.LIB
C:\PROGRAM FILES (X86)\WINDOWS KITS\10\LIB\10.0.22000.0\UM\X86\OLEDLG.LIB
C:\PROGRAM FILES (X86)\WINDOWS KITS\10\LIB\10.0.22000.0\UM\X86\URLMON.LIB
C:\PROGRAM FILES (X86)\MICROSOFT VISUAL STUDIO\2019\PROFESSIONAL\VC\TOOLS\MSVC\14.29.30133\LIB\X86\MSVCPRTD.LIB
C:\PROGRAM FILES (X86)\MICROSOFT VISUAL STUDIO\2019\PROFESSIONAL\VC\TOOLS\MSVC\14.29.30133\LIB\X86\OLDNAMES.LIB
C:\PROGRAM FILES (X86)\WINDOWS KITS\10\LIB\10.0.22000.0\UM\X86\WININET.LIB
C:\PROGRAM FILES (X86)\WINDOWS KITS\10\LIB\10.0.22000.0\UM\X86\WS2_32.LIB
C:\PROGRAM FILES (X86)\WINDOWS KITS\10\LIB\10.0.22000.0\UM\X86\MSWSOCK.LIB
C:\PROGRAM FILES (X86)\MICROSOFT VISUAL STUDIO\2019\PROFESSIONAL\VC\TOOLS\MSVC\14.29.30133\LIB\X86\VCRUNTIMED.LIB
C:\PROGRAM FILES (X86)\WINDOWS KITS\10\LIB\10.0.22000.0\UCRT\X86\UCRTD.LIB
C:\PROGRAM FILES (X86)\MICROSOFT VISUAL STUDIO\2019\PROFESSIONAL\VC\TOOLS\MSVC\14.29.30133\BIN\HOSTX86\X86\CVTRES.EXE
C:\WINDOWS\SYSTEM32\TZRES.DLL
^D:\01.PROJECT\03PC\10.HEADSET\V1.0.54\DLOGIXSSERVER\SERVERTCP\NRHSERVICE\DEBUG\AESSECURITY.OBJ|D:\01.PROJECT\03PC\10.HEADSET\V1.0.54\DLOGIXSSERVER\SERVERTCP\NRHSERVICE\DEBUG\DLOGIXSTCPPACKET.OBJ|D:\01.PROJECT\03PC\10.HEADSET\V1.0.54\DLOGIXSSERVER\SERVERTCP\NRHSERVICE\DEBUG\FIREWALLCONTROL.OBJ|D:\01.PROJECT\03PC\10.HEADSET\V1.0.54\DLOGIXSSERVER\SERVERTCP\NRHSERVICE\DEBUG\JMUTEX.OBJ|D:\01.PROJECT\03PC\10.HEADSET\V1.0.54\DLOGIXSSERVER\SERVERTCP\NRHSERVICE\DEBUG\JTHREAD.OBJ|D:\01.PROJECT\03PC\10.HEADSET\V1.0.54\DLOGIXSSERVER\SERVERTCP\NRHSERVICE\DEBUG\LOG.OBJ|D:\01.PROJECT\03PC\10.HEADSET\V1.0.54\DLOGIXSSERVER\SERVERTCP\NRHSERVICE\DEBUG\NRHSERVICE.OBJ|D:\01.PROJECT\03PC\10.HEADSET\V1.0.54\DLOGIXSSERVER\SERVERTCP\NRHSERVICE\DEBUG\NRHSERVICE.RES|D:\01.PROJECT\03PC\10.HEADSET\V1.0.54\DLOGIXSSERVER\SERVERTCP\NRHSERVICE\DEBUG\PCH.OBJ|D:\01.PROJECT\03PC\10.HEADSET\V1.0.54\DLOGIXSSERVER\SERVERTCP\NRHSERVICE\DEBUG\PROFILE.OBJ|D:\01.PROJECT\03PC\10.HEADSET\V1.0.54\DLOGIXSSERVER\SERVERTCP\NRHSERVICE\DEBUG\SERVICEUTIL.OBJ|D:\01.PROJECT\03PC\10.HEADSET\V1.0.54\DLOGIXSSERVER\SERVERTCP\NRHSERVICE\DEBUG\TCPPROCESS.OBJ
D:\01.PROJECT\03PC\10.HEADSET\V1.0.54\DLOGIXSSERVER\SERVERTCP\DEBUG\SERVERTCP.LIB
D:\01.PROJECT\03PC\10.HEADSET\V1.0.54\DLOGIXSSERVER\SERVERTCP\DEBUG\SERVERUDP.LIB
D:\01.PROJECT\03PC\10.HEADSET\V1.0.54\DLOGIXSSERVER\MANPASLIB\OPENSOURCE\OPENSSL-WIN32\LIB\VC\STATIC\LIBCRYPTO32MTD.LIB
D:\01.PROJECT\03PC\10.HEADSET\V1.0.54\DLOGIXSSERVER\MANPASLIB\OPENSOURCE\OPENSSL-WIN32\LIB\VC\STATIC\LIBSSL32MTD.LIB
D:\01.PROJECT\03PC\10.HEADSET\V1.0.54\DLOGIXSSERVER\MANPASLIB\SQLITE3\SQLITE3_X86.LIB
D:\01.PROJECT\03PC\10.HEADSET\V1.0.54\DLOGIXSSERVER\SERVERTCP\NRHSERVICE\DEBUG\NRHSERVICE.RES
D:\01.PROJECT\03PC\10.HEADSET\V1.0.54\DLOGIXSSERVER\SERVERTCP\NRHSERVICE\DEBUG\DLOGIXSTCPPACKET.OBJ
D:\01.PROJECT\03PC\10.HEADSET\V1.0.54\DLOGIXSSERVER\SERVERTCP\NRHSERVICE\DEBUG\AESSECURITY.OBJ
D:\01.PROJECT\03PC\10.HEADSET\V1.0.54\DLOGIXSSERVER\SERVERTCP\NRHSERVICE\DEBUG\LOG.OBJ
D:\01.PROJECT\03PC\10.HEADSET\V1.0.54\DLOGIXSSERVER\SERVERTCP\NRHSERVICE\DEBUG\PROFILE.OBJ
D:\01.PROJECT\03PC\10.HEADSET\V1.0.54\DLOGIXSSERVER\SERVERTCP\NRHSERVICE\DEBUG\JMUTEX.OBJ
D:\01.PROJECT\03PC\10.HEADSET\V1.0.54\DLOGIXSSERVER\SERVERTCP\NRHSERVICE\DEBUG\JTHREAD.OBJ
D:\01.PROJECT\03PC\10.HEADSET\V1.0.54\DLOGIXSSERVER\SERVERTCP\NRHSERVICE\DEBUG\FIREWALLCONTROL.OBJ
D:\01.PROJECT\03PC\10.HEADSET\V1.0.54\DLOGIXSSERVER\SERVERTCP\NRHSERVICE\DEBUG\SERVICEUTIL.OBJ
D:\01.PROJECT\03PC\10.HEADSET\V1.0.54\DLOGIXSSERVER\SERVERTCP\NRHSERVICE\DEBUG\NRHSERVICE.OBJ
D:\01.PROJECT\03PC\10.HEADSET\V1.0.54\DLOGIXSSERVER\SERVERTCP\NRHSERVICE\DEBUG\PCH.OBJ
D:\01.PROJECT\03PC\10.HEADSET\V1.0.54\DLOGIXSSERVER\SERVERTCP\NRHSERVICE\DEBUG\TCPPROCESS.OBJ
D:\01.PROJECT\03PC\10.HEADSET\V1.0.54\DLOGIXSSERVER\SERVERTCP\NRHSERVICE\DEBUG\NRHSERVICE.ILK
C:\WINDOWS\SYSTEM32\TZRES.DLL
C:\PROGRAM FILES (X86)\MICROSOFT VISUAL STUDIO\2019\PROFESSIONAL\VC\TOOLS\MSVC\14.29.30133\BIN\HOSTX86\X86\1042\LINKUI.DLL
C:\PROGRAM FILES (X86)\MICROSOFT VISUAL STUDIO\2019\PROFESSIONAL\VC\TOOLS\MSVC\14.29.30133\INCLUDE\MANIFEST\DPIAWARE.MANIFEST
C:\WINDOWS\GLOBALIZATION\SORTING\SORTDEFAULT.NLS
C:\PROGRAM FILES (X86)\MICROSOFT VISUAL STUDIO\2019\PROFESSIONAL\VC\TOOLS\MSVC\14.29.30133\ATLMFC\LIB\X86\MFC140UD.LIB
C:\PROGRAM FILES (X86)\MICROSOFT VISUAL STUDIO\2019\PROFESSIONAL\VC\TOOLS\MSVC\14.29.30133\ATLMFC\LIB\X86\MFCS140UD.LIB
C:\PROGRAM FILES (X86)\MICROSOFT VISUAL STUDIO\2019\PROFESSIONAL\VC\TOOLS\MSVC\14.29.30133\LIB\X86\MSVCRTD.LIB
C:\PROGRAM FILES (X86)\WINDOWS KITS\10\LIB\10.0.22000.0\UM\X86\KERNEL32.LIB
C:\PROGRAM FILES (X86)\WINDOWS KITS\10\LIB\10.0.22000.0\UM\X86\USER32.LIB
C:\PROGRAM FILES (X86)\WINDOWS KITS\10\LIB\10.0.22000.0\UM\X86\GDI32.LIB
C:\PROGRAM FILES (X86)\WINDOWS KITS\10\LIB\10.0.22000.0\UM\X86\MSIMG32.LIB
C:\PROGRAM FILES (X86)\WINDOWS KITS\10\LIB\10.0.22000.0\UM\X86\COMDLG32.LIB
C:\PROGRAM FILES (X86)\WINDOWS KITS\10\LIB\10.0.22000.0\UM\X86\WINSPOOL.LIB
C:\PROGRAM FILES (X86)\WINDOWS KITS\10\LIB\10.0.22000.0\UM\X86\ADVAPI32.LIB
C:\PROGRAM FILES (X86)\WINDOWS KITS\10\LIB\10.0.22000.0\UM\X86\SHELL32.LIB
C:\PROGRAM FILES (X86)\WINDOWS KITS\10\LIB\10.0.22000.0\UM\X86\COMCTL32.LIB
C:\PROGRAM FILES (X86)\WINDOWS KITS\10\LIB\10.0.22000.0\UM\X86\SHLWAPI.LIB
C:\PROGRAM FILES (X86)\WINDOWS KITS\10\LIB\10.0.22000.0\UM\X86\UXTHEME.LIB
C:\PROGRAM FILES (X86)\WINDOWS KITS\10\LIB\10.0.22000.0\UM\X86\WINDOWSCODECS.LIB
C:\PROGRAM FILES (X86)\WINDOWS KITS\10\LIB\10.0.22000.0\UM\X86\UUID.LIB
C:\PROGRAM FILES (X86)\MICROSOFT VISUAL STUDIO\2019\PROFESSIONAL\VC\TOOLS\MSVC\14.29.30133\ATLMFC\LIB\X86\ATLS.LIB
C:\PROGRAM FILES (X86)\WINDOWS KITS\10\LIB\10.0.22000.0\UM\X86\OLE32.LIB
C:\PROGRAM FILES (X86)\WINDOWS KITS\10\LIB\10.0.22000.0\UM\X86\OLEAUT32.LIB
C:\PROGRAM FILES (X86)\WINDOWS KITS\10\LIB\10.0.22000.0\UM\X86\OLEDLG.LIB
C:\PROGRAM FILES (X86)\WINDOWS KITS\10\LIB\10.0.22000.0\UM\X86\URLMON.LIB
C:\PROGRAM FILES (X86)\MICROSOFT VISUAL STUDIO\2019\PROFESSIONAL\VC\TOOLS\MSVC\14.29.30133\LIB\X86\MSVCPRTD.LIB
C:\PROGRAM FILES (X86)\MICROSOFT VISUAL STUDIO\2019\PROFESSIONAL\VC\TOOLS\MSVC\14.29.30133\LIB\X86\OLDNAMES.LIB
C:\PROGRAM FILES (X86)\WINDOWS KITS\10\LIB\10.0.22000.0\UM\X86\WININET.LIB
C:\PROGRAM FILES (X86)\WINDOWS KITS\10\LIB\10.0.22000.0\UM\X86\WS2_32.LIB
C:\PROGRAM FILES (X86)\WINDOWS KITS\10\LIB\10.0.22000.0\UM\X86\MSWSOCK.LIB
C:\PROGRAM FILES (X86)\MICROSOFT VISUAL STUDIO\2019\PROFESSIONAL\VC\TOOLS\MSVC\14.29.30133\LIB\X86\VCRUNTIMED.LIB
C:\PROGRAM FILES (X86)\WINDOWS KITS\10\LIB\10.0.22000.0\UCRT\X86\UCRTD.LIB
C:\PROGRAM FILES (X86)\MICROSOFT VISUAL STUDIO\2019\PROFESSIONAL\VC\TOOLS\MSVC\14.29.30133\BIN\HOSTX86\X86\CVTRES.EXE
