^D:\01.PROJECT\03PC\10.HEADSET\V1.0.54\HEADSET\SOURCE\STM\UPDATEFW\RELEASE\CMPBASETHREAD.OBJ|D:\01.PROJECT\03PC\10.HEADSET\V1.0.54\HEADSET\SOURCE\STM\UPDATEFW\RELEASE\CUPDATETHREAD.OBJ|D:\01.PROJECT\03PC\10.HEADSET\V1.0.54\HEADSET\SOURCE\STM\UPDATEFW\RELEASE\PCH.OBJ|D:\01.PROJECT\03PC\10.HEADSET\V1.0.54\HEADSET\SOURCE\STM\UPDATEFW\RELEASE\UPDATEFW.OBJ|D:\01.PROJECT\03PC\10.HEADSET\V1.0.54\HEADSET\SOURCE\STM\UPDATEFW\RELEASE\UPDATEFW.RES|D:\01.PROJECT\03PC\10.HEADSET\V1.0.54\HEADSET\SOURCE\STM\UPDATEFW\RELEASE\UPDATEFWDLG.OBJ
D:\01.PROJECT\03PC\10.HEADSET\V1.0.54\HEADSET\SOURCE\RELEASE\UPDATEFW.EXE
D:\01.PROJECT\03PC\10.HEADSET\V1.0.54\HEADSET\SOURCE\STM\UPDATEFW\RELEASE\UPDATEFW.IPDB
D:\01.PROJECT\03PC\10.HEADSET\V1.0.54\HEADSET\SOURCE\STM\UPDATEFW\RELEASE\UPDATEFW.IOBJ
D:\01.PROJECT\03PC\10.HEADSET\V1.0.54\HEADSET\SOURCE\RELEASE\UPDATEFW.PDB
^D:\NRH SOURCE\10.HEADSET\V1.0.55\HEADSET\SOURCE\STM\UPDATEFW\RELEASE\CMPBASETHREAD.OBJ|D:\NRH SOURCE\10.HEADSET\V1.0.55\HEADSET\SOURCE\STM\UPDATEFW\RELEASE\CUPDATETHREAD.OBJ|D:\NRH SOURCE\10.HEADSET\V1.0.55\HEADSET\SOURCE\STM\UPDATEFW\RELEASE\PCH.OBJ|D:\NRH SOURCE\10.HEADSET\V1.0.55\HEADSET\SOURCE\STM\UPDATEFW\RELEASE\UPDATEFW.OBJ|D:\NRH SOURCE\10.HEADSET\V1.0.55\HEADSET\SOURCE\STM\UPDATEFW\RELEASE\UPDATEFW.RES|D:\NRH SOURCE\10.HEADSET\V1.0.55\HEADSET\SOURCE\STM\UPDATEFW\RELEASE\UPDATEFWDLG.OBJ
D:\NRH SOURCE\10.HEADSET\V1.0.55\HEADSET\SOURCE\RELEASE\UPDATEFW.EXE
D:\NRH SOURCE\10.HEADSET\V1.0.55\HEADSET\SOURCE\STM\UPDATEFW\RELEASE\UPDATEFW.IPDB
D:\NRH SOURCE\10.HEADSET\V1.0.55\HEADSET\SOURCE\STM\UPDATEFW\RELEASE\UPDATEFW.IOBJ
D:\NRH SOURCE\10.HEADSET\V1.0.55\HEADSET\SOURCE\RELEASE\UPDATEFW.PDB
