^D:\NRH SOURCE\10.HEADSET\V1.0.54\HEADSET\SOURCE\MONITOR\MONITOR.RC
D:\NRH SOURCE\10.HEADSET\V1.0.54\HEADSET\SOURCE\MONITOR\RESOURCE.H
D:\NRH SOURCE\10.HEADSET\V1.0.54\HEADSET\SOURCE\MONITOR\TARGETVER.H
C:\PROGRAM FILES (X86)\WINDOWS KITS\10\INCLUDE\10.0.18362.0\SHARED\SDKDDKVER.H
C:\PROGRAM FILES (X86)\MICROSOFT VISUAL STUDIO\2019\PROFESSIONAL\VC\TOOLS\MSVC\14.28.29910\ATLMFC\INCLUDE\AFXRES.H
C:\PROGRAM FILES (X86)\WINDOWS KITS\10\INCLUDE\10.0.18362.0\UM\WINRES.H
C:\PROGRAM FILES (X86)\WINDOWS KITS\10\INCLUDE\10.0.18362.0\UM\WINRESRC.H
C:\PROGRAM FILES (X86)\WINDOWS KITS\10\INCLUDE\10.0.18362.0\UM\WINUSER.RH
C:\PROGRAM FILES (X86)\WINDOWS KITS\10\INCLUDE\10.0.18362.0\SHARED\WINAPIFAMILY.H
C:\PROGRAM FILES (X86)\WINDOWS KITS\10\INCLUDE\10.0.18362.0\SHARED\WINPACKAGEFAMILY.H
C:\PROGRAM FILES (X86)\WINDOWS KITS\10\INCLUDE\10.0.18362.0\UM\COMMCTRL.RH
C:\PROGRAM FILES (X86)\WINDOWS KITS\10\INCLUDE\10.0.18362.0\UM\DDE.RH
C:\PROGRAM FILES (X86)\WINDOWS KITS\10\INCLUDE\10.0.18362.0\UM\WINNT.RH
C:\PROGRAM FILES (X86)\WINDOWS KITS\10\INCLUDE\10.0.18362.0\UM\DLGS.H
C:\PROGRAM FILES (X86)\WINDOWS KITS\10\INCLUDE\10.0.18362.0\UM\WINVER.H
C:\PROGRAM FILES (X86)\WINDOWS KITS\10\INCLUDE\10.0.18362.0\SHARED\SPECSTRINGS.H
C:\PROGRAM FILES (X86)\MICROSOFT VISUAL STUDIO\2019\PROFESSIONAL\VC\TOOLS\MSVC\14.28.29910\INCLUDE\SAL.H
C:\PROGRAM FILES (X86)\MICROSOFT VISUAL STUDIO\2019\PROFESSIONAL\VC\TOOLS\MSVC\14.28.29910\INCLUDE\CONCURRENCYSAL.H
C:\PROGRAM FILES (X86)\WINDOWS KITS\10\INCLUDE\10.0.18362.0\SHARED\DRIVERSPECS.H
C:\PROGRAM FILES (X86)\WINDOWS KITS\10\INCLUDE\10.0.18362.0\SHARED\SDV_DRIVERSPECS.H
C:\PROGRAM FILES (X86)\WINDOWS KITS\10\INCLUDE\10.0.18362.0\UM\VERRSRC.H
D:\NRH SOURCE\10.HEADSET\V1.0.54\HEADSET\SOURCE\MONITOR\RES\MONITOR.RC2
C:\PROGRAM FILES (X86)\MICROSOFT VISUAL STUDIO\2019\PROFESSIONAL\VC\TOOLS\MSVC\14.28.29910\ATLMFC\INCLUDE\AFXRES.RC
D:\NRH SOURCE\10.HEADSET\V1.0.54\HEADSET\SOURCE\MONITOR\RES\MANAGER.ICO
D:\NRH SOURCE\10.HEADSET\V1.0.54\HEADSET\SOURCE\MONITOR\RES\MONITOR.ICO
D:\NRH SOURCE\10.HEADSET\V1.0.54\HEADSET\SOURCE\NM\MANAGER\MAIN_BACK.PNG
D:\NRH SOURCE\10.HEADSET\V1.0.54\HEADSET\SOURCE\NM\_MANPAS\SERVER_LOGIN_BACK.PNG
D:\NRH SOURCE\10.HEADSET\V1.0.54\HEADSET\SOURCE\NM\_MANPAS\SERVER_SET_BACK.PNG
D:\NRH SOURCE\10.HEADSET\V1.0.54\HEADSET\SOURCE\NM\MANAGER\EVENT.PNG
D:\NRH SOURCE\10.HEADSET\V1.0.54\HEADSET\SOURCE\NM\MANAGER\EVENT_DOWN.PNG
D:\NRH SOURCE\10.HEADSET\V1.0.54\HEADSET\SOURCE\NM\MANAGER\MAIN.PNG
D:\NRH SOURCE\10.HEADSET\V1.0.54\HEADSET\SOURCE\NM\MANAGER\MAIN_DOWN.PNG
D:\NRH SOURCE\10.HEADSET\V1.0.54\HEADSET\SOURCE\NM\MANAGER\SETTING.PNG
D:\NRH SOURCE\10.HEADSET\V1.0.54\HEADSET\SOURCE\NM\MANAGER\SETTING_DOWN.PNG
D:\NRH SOURCE\10.HEADSET\V1.0.54\HEADSET\SOURCE\NM\MANAGER\USER.PNG
D:\NRH SOURCE\10.HEADSET\V1.0.54\HEADSET\SOURCE\NM\MANAGER\USER_DOWN.PNG
D:\NRH SOURCE\10.HEADSET\V1.0.54\HEADSET\SOURCE\NM\_MANPAS\SERVER_EVENT_BACK.PNG
D:\NRH SOURCE\10.HEADSET\V1.0.54\HEADSET\SOURCE\NM\_MANPAS\SERVER_MAIN_BACK.PNG
D:\NRH SOURCE\10.HEADSET\V1.0.54\HEADSET\SOURCE\NM\_MANPAS\SERVER_USER_BACK.PNG
D:\NRH SOURCE\10.HEADSET\V1.0.54\HEADSET\SOURCE\NM\MANAGER\LOGIN.PNG
D:\NRH SOURCE\10.HEADSET\V1.0.54\HEADSET\SOURCE\NM\MANAGER\LOGIN_DOWN.PNG
D:\NRH SOURCE\10.HEADSET\V1.0.54\HEADSET\SOURCE\NM\MANAGER\M-1.PNG
D:\NRH SOURCE\10.HEADSET\V1.0.54\HEADSET\SOURCE\NM\MANAGER\M-1_DOWN.PNG
D:\NRH SOURCE\10.HEADSET\V1.0.54\HEADSET\SOURCE\NM\MANAGER\M-2.PNG
D:\NRH SOURCE\10.HEADSET\V1.0.54\HEADSET\SOURCE\NM\MANAGER\M-2_DOWN.PNG
D:\NRH SOURCE\10.HEADSET\V1.0.54\HEADSET\SOURCE\NM\MANAGER\ALLVIEW_NOR.PNG
D:\NRH SOURCE\10.HEADSET\V1.0.54\HEADSET\SOURCE\NM\MANAGER\ALLVIEW_SEL.PNG
D:\NRH SOURCE\10.HEADSET\V1.0.54\HEADSET\SOURCE\NM\MANAGER\EVENTVIEW_NOR.PNG
D:\NRH SOURCE\10.HEADSET\V1.0.54\HEADSET\SOURCE\NM\MANAGER\EVENTVIEW_SEL.PNG
D:\NRH SOURCE\10.HEADSET\V1.0.54\HEADSET\SOURCE\NM\MANAGER\REFRASH.PNG
D:\NRH SOURCE\10.HEADSET\V1.0.54\HEADSET\SOURCE\NM\MANAGER\REFRASH_DOWN.PNG
D:\NRH SOURCE\10.HEADSET\V1.0.54\HEADSET\SOURCE\NM\_MANPAS\LOGOUT.PNG
D:\NRH SOURCE\10.HEADSET\V1.0.54\HEADSET\SOURCE\NM\_MANPAS\LOGOUT_DOWN.PNG
D:\NRH SOURCE\10.HEADSET\V1.0.54\HEADSET\SOURCE\NM\MANAGER\CAUTION.PNG
D:\NRH SOURCE\10.HEADSET\V1.0.54\HEADSET\SOURCE\NM\MANAGER\FEVER.PNG
D:\NRH SOURCE\10.HEADSET\V1.0.54\HEADSET\SOURCE\NM\MANAGER\NORMAL.PNG
D:\NRH SOURCE\10.HEADSET\V1.0.54\HEADSET\SOURCE\NM\_MANPAS\OK.PNG
D:\NRH SOURCE\10.HEADSET\V1.0.54\HEADSET\SOURCE\NM\_MANPAS\OK_DOWN.PNG
D:\NRH SOURCE\10.HEADSET\V1.0.54\HEADSET\SOURCE\NM\MANAGER\ALL_SEARCH.PNG
D:\NRH SOURCE\10.HEADSET\V1.0.54\HEADSET\SOURCE\NM\MANAGER\ALL_SEARCH_DOWN.PNG
D:\NRH SOURCE\10.HEADSET\V1.0.54\HEADSET\SOURCE\NM\MANAGER\DEL.PNG
D:\NRH SOURCE\10.HEADSET\V1.0.54\HEADSET\SOURCE\NM\MANAGER\DEL_DOWN.PNG
D:\NRH SOURCE\10.HEADSET\V1.0.54\HEADSET\SOURCE\NM\MANAGER\ID_SEARCH.PNG
D:\NRH SOURCE\10.HEADSET\V1.0.54\HEADSET\SOURCE\NM\MANAGER\ID_SEARCH_DOWN.PNG
D:\NRH SOURCE\10.HEADSET\V1.0.54\HEADSET\SOURCE\NM\MANAGER\OPEN.PNG
D:\NRH SOURCE\10.HEADSET\V1.0.54\HEADSET\SOURCE\NM\MANAGER\OPEN_DOWN.PNG
D:\NRH SOURCE\10.HEADSET\V1.0.54\HEADSET\SOURCE\NM\MANAGER\SEARCH.PNG
D:\NRH SOURCE\10.HEADSET\V1.0.54\HEADSET\SOURCE\NM\MANAGER\SEARCH_DOWN.PNG
D:\NRH SOURCE\10.HEADSET\V1.0.54\HEADSET\SOURCE\NM\MANAGER\SELECTALL.PNG
D:\NRH SOURCE\10.HEADSET\V1.0.54\HEADSET\SOURCE\NM\MANAGER\SELECTALL_DOWN.PNG
D:\NRH SOURCE\10.HEADSET\V1.0.54\HEADSET\SOURCE\NM\MANAGER\SELECTDEL.PNG
D:\NRH SOURCE\10.HEADSET\V1.0.54\HEADSET\SOURCE\NM\MANAGER\SELECTDEL_DOWN.PNG
D:\NRH SOURCE\10.HEADSET\V1.0.54\HEADSET\SOURCE\NM\MANAGER\CHECK.PNG
D:\NRH SOURCE\10.HEADSET\V1.0.54\HEADSET\SOURCE\NM\MANAGER\CHECK_ON.PNG
D:\NRH SOURCE\10.HEADSET\V1.0.54\HEADSET\SOURCE\NM\MANAGER\CONNET.PNG
D:\NRH SOURCE\10.HEADSET\V1.0.54\HEADSET\SOURCE\NM\MANAGER\CONNET_DOWN.PNG
D:\NRH SOURCE\10.HEADSET\V1.0.54\HEADSET\SOURCE\NM\MANAGER\POINT.PNG
D:\NRH SOURCE\10.HEADSET\V1.0.54\HEADSET\SOURCE\NM\MANAGER\SWDL.PNG
D:\NRH SOURCE\10.HEADSET\V1.0.54\HEADSET\SOURCE\NM\MANAGER\SWDL_DOWN.PNG
D:\NRH SOURCE\10.HEADSET\V1.0.54\HEADSET\SOURCE\NM\MANAGER\T_C.PNG
D:\NRH SOURCE\10.HEADSET\V1.0.54\HEADSET\SOURCE\NM\MANAGER\T_F.PNG
D:\NRH SOURCE\10.HEADSET\V1.0.54\HEADSET\SOURCE\NM\MANAGER\UPDATE.PNG
D:\NRH SOURCE\10.HEADSET\V1.0.54\HEADSET\SOURCE\NM\MANAGER\UPDATE_DOWN.PNG
D:\NRH SOURCE\10.HEADSET\V1.0.54\HEADSET\SOURCE\NM\_MANPAS\POINT-WHITE.PNG
D:\NRH SOURCE\10.HEADSET\V1.0.54\HEADSET\SOURCE\NM\MANAGER\SAVE.PNG
D:\NRH SOURCE\10.HEADSET\V1.0.54\HEADSET\SOURCE\NM\MANAGER\SAVE_DOWN.PNG
D:\NRH SOURCE\10.HEADSET\V1.0.54\HEADSET\SOURCE\NM\MANAGER\NO.PNG
D:\NRH SOURCE\10.HEADSET\V1.0.54\HEADSET\SOURCE\NM\MANAGER\NO_DOWN.PNG
D:\NRH SOURCE\10.HEADSET\V1.0.54\HEADSET\SOURCE\NM\MANAGER\POPUP.PNG
D:\NRH SOURCE\10.HEADSET\V1.0.54\HEADSET\SOURCE\NM\MANAGER\YES.PNG
D:\NRH SOURCE\10.HEADSET\V1.0.54\HEADSET\SOURCE\NM\MANAGER\YES_DOWN.PNG
D:\NRH SOURCE\10.HEADSET\V1.0.54\HEADSET\SOURCE\NM\MANAGER\ALRAM.PNG
D:\NRH SOURCE\10.HEADSET\V1.0.54\HEADSET\SOURCE\NM\MANAGER\ALRAM-2.PNG
D:\NRH SOURCE\10.HEADSET\V1.0.54\HEADSET\SOURCE\NM\MANAGER\NVIEW.PNG
D:\NRH SOURCE\10.HEADSET\V1.0.54\HEADSET\SOURCE\NM\MANAGER\EV_A.PNG
D:\NRH SOURCE\10.HEADSET\V1.0.54\HEADSET\SOURCE\NM\MANAGER\EV_B.PNG
D:\NRH SOURCE\10.HEADSET\V1.0.54\HEADSET\SOURCE\NM\MANAGER\EV_C.PNG
D:\NRH SOURCE\10.HEADSET\V1.0.54\HEADSET\SOURCE\NM\MANAGER\EV_D.PNG
D:\NRH SOURCE\10.HEADSET\V1.0.54\HEADSET\SOURCE\NM\MANAGER\LOGOUT.PNG
D:\NRH SOURCE\10.HEADSET\V1.0.54\HEADSET\SOURCE\NM\MANAGER\TERMS.PNG
D:\NRH SOURCE\10.HEADSET\V1.0.54\HEADSET\SOURCE\NM\MANAGER\TERMS_DOWN.PNG
D:\NRH SOURCE\10.HEADSET\V1.0.54\HEADSET\SOURCE\NM\MANAGER\LOGO.PNG
D:\NRH SOURCE\10.HEADSET\V1.0.54\HEADSET\SOURCE\NM\MANAGER\NORMAL_GRAY.PNG
